{
"skeleton": {
	"hash": "aUgrqjmLns98qO5+m8tlc2Xsl/Q",
	"spine": "3.6.53",
	"width": 551.57,
	"height": 477.8,
	"images": "../PtoS/tartaruga spine/"
},
"bones": [
	{ "name": "root" },
	{ "name": "tartaruga", "parent": "root", "length": 173.5, "rotation": -171.45, "x": 71.44, "y": 54.15 },
	{ "name": "testa", "parent": "tartaruga", "length": 124.65, "rotation": -73.45, "x": 177.85, "y": -40.44 },
	{ "name": "bolla1", "parent": "testa", "x": 119.06, "y": 61.03 },
	{ "name": "bolla2", "parent": "testa", "x": 139.82, "y": -17.79 },
	{ "name": "bolla3", "parent": "testa", "x": 213.12, "y": -17.95 },
	{ "name": "bolla4", "parent": "testa", "x": 180.77, "y": 28.55 },
	{ "name": "petrolio", "parent": "tartaruga", "x": -4.68, "y": -65.83 },
	{ "name": "pinna dx", "parent": "tartaruga", "length": 151.45, "rotation": 51.28, "x": 128.96, "y": 33.44 },
	{ "name": "pinna posteriore", "parent": "tartaruga", "length": 152.2, "rotation": -168.73, "x": -74.87, "y": 39.96 },
	{ "name": "pinna sx", "parent": "tartaruga", "length": 119.36, "rotation": 101.35, "x": 92.98, "y": 41.46 },
	{ "name": "plastica", "parent": "pinna sx", "x": 91.46, "y": -39.56 },
	{ "name": "teschio", "parent": "testa", "x": 90.76, "y": 152.64 },
	{ "name": "vomito", "parent": "testa", "x": -73.03, "y": 69.12 }
],
"slots": [
	{ "name": "pinna dx", "bone": "pinna dx", "attachment": "pinna dx" },
	{ "name": "tartaruga", "bone": "tartaruga", "attachment": "tartaruga" },
	{ "name": "testa", "bone": "testa", "attachment": "testa" },
	{ "name": "pinna sx", "bone": "pinna sx", "attachment": "pinna sx" },
	{ "name": "pinna posteriore", "bone": "pinna posteriore", "attachment": "pinna posteriore" },
	{ "name": "vomito", "bone": "vomito", "attachment": "vomito" },
	{ "name": "teschio", "bone": "teschio", "attachment": "teschio" },
	{ "name": "bolla1", "bone": "bolla1", "attachment": "bolla1" },
	{ "name": "bolla2", "bone": "bolla2", "attachment": "bolla2" },
	{ "name": "bolla3", "bone": "bolla3", "attachment": "bolla3" },
	{ "name": "bolla4", "bone": "bolla4", "attachment": "bolla4" },
	{ "name": "petrolio", "bone": "petrolio", "attachment": "petrolio" },
	{ "name": "plastica", "bone": "plastica", "attachment": "plastica" }
],
"skins": {
	"default": {},
	"base": {
		"pinna dx": {
			"pinna dx": { "x": 104, "y": 48.5, "rotation": 120.17, "width": 156, "height": 256 }
		},
		"pinna posteriore": {
			"pinna posteriore": { "x": 79.89, "y": 3.28, "rotation": -19.82, "width": 177, "height": 122 }
		},
		"pinna sx": {
			"pinna sx": { "x": 111.52, "y": 86.97, "rotation": 70.1, "width": 289, "height": 184 }
		},
		"tartaruga": {
			"tartaruga": { "x": 57.83, "y": -56.5, "rotation": 171.45, "width": 470, "height": 272 }
		},
		"testa": {
			"testa": { "x": 17.06, "y": -13.35, "rotation": -115.11, "width": 264, "height": 237 }
		}
	},
	"petrolio": {
		"petrolio": {
			"petrolio": { "x": -0.67, "y": 5.2, "rotation": 149.29, "width": 136, "height": 73 }
		}
	},
	"plastica": {
		"plastica": {
			"plastica": { "x": 5.9, "y": 0.52, "rotation": 68.69, "width": 179, "height": 158 }
		}
	},
	"veleno": {
		"bolla1": {
			"bolla1": { "rotation": -115.11, "width": 42, "height": 42 }
		},
		"bolla2": {
			"bolla2": { "rotation": -115.11, "width": 32, "height": 31 }
		},
		"bolla3": {
			"bolla3": { "rotation": -115.11, "width": 25, "height": 23 }
		},
		"bolla4": {
			"bolla4": { "rotation": -115.11, "width": 32, "height": 31 }
		},
		"teschio": {
			"teschio": { "scaleX": 0.367, "scaleY": 0.367, "rotation": -115.11, "width": 144, "height": 147 }
		}
	},
	"vomito": {
		"vomito": {
			"vomito": { "x": -12.28, "y": 1.27, "rotation": -115.11, "width": 45, "height": 112 }
		}
	}
},
"animations": {
	"idle": {
		"bones": {
			"root": {
				"rotate": [
					{ "time": 0, "angle": 0, "curve": "stepped" },
					{ "time": 1.3333, "angle": 0 }
				],
				"translate": [
					{ "time": 0, "x": 0, "y": 0, "curve": "stepped" },
					{ "time": 1.3333, "x": 0, "y": 0 }
				],
				"scale": [
					{ "time": 0, "x": 1, "y": 1, "curve": "stepped" },
					{ "time": 1.3333, "x": 1, "y": 1 }
				]
			},
			"tartaruga": {
				"rotate": [
					{ "time": 0, "angle": 0 },
					{ "time": 0.6667, "angle": 5.96 },
					{ "time": 1.3333, "angle": 0 }
				],
				"translate": [
					{ "time": 0, "x": 0, "y": 0, "curve": "stepped" },
					{ "time": 1.3333, "x": 0, "y": 0 }
				],
				"scale": [
					{ "time": 0, "x": 1, "y": 1, "curve": "stepped" },
					{ "time": 1.3333, "x": 1, "y": 1 }
				]
			},
			"testa": {
				"rotate": [
					{ "time": 0, "angle": 0 },
					{ "time": 0.6667, "angle": 2.59 },
					{ "time": 1.3333, "angle": 0 }
				],
				"translate": [
					{ "time": 0, "x": 0, "y": 0 },
					{ "time": 0.6667, "x": 2.74, "y": 10.58 },
					{ "time": 1.3333, "x": 0, "y": 0 }
				],
				"scale": [
					{ "time": 0, "x": 1, "y": 1, "curve": "stepped" },
					{ "time": 1.3333, "x": 1, "y": 1 }
				]
			},
			"vomito": {
				"rotate": [
					{ "time": 0, "angle": 0, "curve": "stepped" },
					{ "time": 1.3333, "angle": 0 }
				],
				"translate": [
					{ "time": 0, "x": 0, "y": 0, "curve": "stepped" },
					{ "time": 1.3333, "x": 0, "y": 0 }
				],
				"scale": [
					{ "time": 0, "x": 1, "y": 1, "curve": "stepped" },
					{ "time": 1.3333, "x": 1, "y": 1 }
				]
			},
			"teschio": {
				"rotate": [
					{ "time": 0, "angle": 0 },
					{ "time": 0.3333, "angle": 32.64 },
					{ "time": 0.6667, "angle": -36.32 },
					{ "time": 1, "angle": 32.64 },
					{ "time": 1.3333, "angle": 0 }
				],
				"translate": [
					{ "time": 0, "x": 0, "y": 0, "curve": "stepped" },
					{ "time": 1.3333, "x": 0, "y": 0 }
				],
				"scale": [
					{ "time": 0, "x": 1, "y": 1, "curve": "stepped" },
					{ "time": 1.3333, "x": 1, "y": 1 }
				]
			},
			"bolla1": {
				"rotate": [
					{ "time": 0, "angle": 0, "curve": "stepped" },
					{ "time": 1.3333, "angle": 0 }
				],
				"translate": [
					{ "time": 0, "x": 0, "y": 0, "curve": "stepped" },
					{ "time": 1.3333, "x": 0, "y": 0 }
				],
				"scale": [
					{ "time": 0, "x": 0.023, "y": 0.023 },
					{ "time": 0.1667, "x": 0.234, "y": 0.234 },
					{ "time": 0.5, "x": 0.465, "y": 0.465 },
					{ "time": 0.8333, "x": 0.765, "y": 0.765 },
					{ "time": 1.3333, "x": 0.023, "y": 0.023 }
				]
			},
			"bolla2": {
				"rotate": [
					{ "time": 0, "angle": 0, "curve": "stepped" },
					{ "time": 1.3333, "angle": 0 }
				],
				"translate": [
					{ "time": 0, "x": 0, "y": 0, "curve": "stepped" },
					{ "time": 1.3333, "x": 0, "y": 0 }
				],
				"scale": [
					{ "time": 0, "x": 0.09, "y": 0.09 },
					{ "time": 0.3333, "x": 0.337, "y": 0.337 },
					{ "time": 0.6667, "x": 0.619, "y": 0.619 },
					{ "time": 1, "x": 0.854, "y": 0.854 },
					{ "time": 1.3333, "x": 0.09, "y": 0.09 }
				]
			},
			"bolla4": {
				"rotate": [
					{ "time": 0, "angle": 0, "curve": "stepped" },
					{ "time": 1.3333, "angle": 0 }
				],
				"translate": [
					{ "time": 0, "x": 0, "y": 0, "curve": "stepped" },
					{ "time": 1.3333, "x": 0, "y": 0 }
				],
				"scale": [
					{ "time": 0, "x": 0.062, "y": 0.062 },
					{ "time": 0.5, "x": 0.437, "y": 0.437 },
					{ "time": 0.8333, "x": 0.695, "y": 0.695 },
					{ "time": 1.1667, "x": 0.929, "y": 0.929 },
					{ "time": 1.3333, "x": 0.062, "y": 0.062 }
				]
			},
			"bolla3": {
				"rotate": [
					{ "time": 0, "angle": 0, "curve": "stepped" },
					{ "time": 1.3333, "angle": 0 }
				],
				"translate": [
					{ "time": 0, "x": 0, "y": 0, "curve": "stepped" },
					{ "time": 1.3333, "x": 0, "y": 0 }
				],
				"scale": [
					{ "time": 0, "x": 0.111, "y": 0.111 },
					{ "time": 0.2667, "x": 0.396, "y": 0.396 },
					{ "time": 0.6, "x": 0.605, "y": 0.605 },
					{ "time": 0.9333, "x": 0.816, "y": 0.816 },
					{ "time": 1.3333, "x": 0.111, "y": 0.111 }
				]
			},
			"petrolio": {
				"rotate": [
					{ "time": 0, "angle": 0, "curve": "stepped" },
					{ "time": 1.3333, "angle": 0 }
				],
				"translate": [
					{ "time": 0, "x": 0, "y": 0, "curve": "stepped" },
					{ "time": 1.3333, "x": 0, "y": 0 }
				],
				"scale": [
					{ "time": 0, "x": 1, "y": 1, "curve": "stepped" },
					{ "time": 1.3333, "x": 1, "y": 1 }
				]
			},
			"pinna posteriore": {
				"rotate": [
					{ "time": 0, "angle": 0 },
					{ "time": 0.6667, "angle": 343.21 },
					{ "time": 1.3333, "angle": 0 }
				],
				"translate": [
					{ "time": 0, "x": 0, "y": 0, "curve": "stepped" },
					{ "time": 1.3333, "x": 0, "y": 0 }
				],
				"scale": [
					{ "time": 0, "x": 1, "y": 1, "curve": "stepped" },
					{ "time": 1.3333, "x": 1, "y": 1 }
				]
			},
			"pinna sx": {
				"rotate": [
					{ "time": 0, "angle": 0 },
					{ "time": 0.6667, "angle": 12.17 },
					{ "time": 1.3333, "angle": 0 }
				],
				"translate": [
					{ "time": 0, "x": 0, "y": 0, "curve": "stepped" },
					{ "time": 1.3333, "x": 0, "y": 0 }
				],
				"scale": [
					{ "time": 0, "x": 1, "y": 1, "curve": "stepped" },
					{ "time": 1.3333, "x": 1, "y": 1 }
				]
			},
			"pinna dx": {
				"rotate": [
					{ "time": 0, "angle": 0 },
					{ "time": 0.6667, "angle": -11.69 },
					{ "time": 1.3333, "angle": 0 }
				],
				"translate": [
					{ "time": 0, "x": 0, "y": 0, "curve": "stepped" },
					{ "time": 1.3333, "x": 0, "y": 0 }
				],
				"scale": [
					{ "time": 0, "x": 1, "y": 1, "curve": "stepped" },
					{ "time": 1.3333, "x": 1, "y": 1 }
				]
			},
			"plastica": {
				"rotate": [
					{ "time": 0, "angle": 0, "curve": "stepped" },
					{ "time": 1.3333, "angle": 0 }
				],
				"translate": [
					{ "time": 0, "x": 0, "y": 0, "curve": "stepped" },
					{ "time": 1.3333, "x": 0, "y": 0 }
				],
				"scale": [
					{ "time": 0, "x": 1, "y": 1, "curve": "stepped" },
					{ "time": 1.3333, "x": 1, "y": 1 }
				]
			}
		}
	}
}
}