{
"skeleton": { "hash": "3oKhPv2fz4FsiLY6dWuVbMibdbw", "spine": "3.6.53", "width": 891, "height": 464.79, "images": "../PtoS/manta spine/" },
"bones": [
	{ "name": "root" },
	{ "name": "manta", "parent": "root", "length": 264.59, "rotation": 160.27, "x": 13.94, "y": 80.35 },
	{ "name": "bolla1", "parent": "manta", "rotation": 0.99, "x": -42.24, "y": -88.66 },
	{ "name": "bolla2", "parent": "manta", "rotation": 0.99, "x": -84.49, "y": -142.75 },
	{ "name": "bolla3", "parent": "manta", "rotation": 0.99, "x": -28.08, "y": -230.66 },
	{ "name": "bolla4", "parent": "manta", "rotation": 0.99, "x": -20.37, "y": -158.68 },
	{ "name": "manta2", "parent": "manta", "length": 72.96, "rotation": 35.68, "x": 267.55, "y": 1.39 },
	{ "name": "manta3", "parent": "manta2", "length": 69.24, "rotation": 17.53, "x": 77.06, "y": 1.83 },
	{ "name": "petrolio", "parent": "manta", "rotation": 0.99, "x": 112.39, "y": -49.42 },
	{ "name": "pinna dx", "parent": "manta", "length": 175.97, "rotation": 34.05, "x": 180.99, "y": 131.85 },
	{ "name": "pinna dx2", "parent": "pinna dx", "length": 108.61, "rotation": -37.26, "x": 178.01, "y": -0.11 },
	{ "name": "pinna dx3", "parent": "pinna dx2", "length": 76.28, "rotation": -65.15, "x": 111.36, "y": -0.59 },
	{ "name": "pinna dx4", "parent": "pinna dx3", "length": 65.46, "rotation": -46.05, "x": 81.17, "y": -2.33 },
	{ "name": "pinna sx", "parent": "manta", "length": 96.11, "rotation": -138.28, "x": -157.57, "y": -143.02 },
	{ "name": "pinna sx2", "parent": "pinna sx", "length": 75.72, "rotation": 43.61, "x": 95.35, "y": 1.45 },
	{ "name": "pinna sx3", "parent": "pinna sx2", "length": 51.78, "rotation": 58.16, "x": 77.61, "y": 3.35 },
	{ "name": "plastica", "parent": "pinna dx4", "rotation": 151.07, "x": -14.96, "y": 45.12 },
	{ "name": "teschio", "parent": "manta", "rotation": 0.99, "x": -146.74, "y": -138.04 },
	{ "name": "vomito", "parent": "manta", "rotation": 0.99, "x": -183.29, "y": -2.98 }
],
"slots": [
	{ "name": "pinna sx", "bone": "pinna sx", "attachment": "pinna sx" },
	{ "name": "pinna dx", "bone": "pinna dx", "attachment": "pinna dx" },
	{ "name": "manta", "bone": "manta", "attachment": "manta" },
	{ "name": "bolla1", "bone": "bolla1", "attachment": "bolla1" },
	{ "name": "bolla2", "bone": "bolla2", "attachment": "bolla2" },
	{ "name": "bolla3", "bone": "bolla3", "attachment": "bolla3" },
	{ "name": "bolla4", "bone": "bolla4", "attachment": "bolla4" },
	{ "name": "petrolio", "bone": "petrolio", "attachment": "petrolio" },
	{ "name": "plastica", "bone": "plastica", "attachment": "plastica" },
	{ "name": "teschio", "bone": "teschio", "attachment": "teschio" },
	{ "name": "vomito", "bone": "vomito", "attachment": "vomito" }
],
"skins": {
	"default": {},
	"base": {
		"manta": {
			"manta": {
				"type": "mesh",
				"uvs": [ 0.99999, 0.31536, 0.99999, 0.48005, 0.99775, 0.62013, 0.8913, 0.85803, 0.68818, 0.99999, 0.59293, 1, 0.49768, 0.87696, 0.34065, 0.78799, 0.26557, 0.51223, 0.19098, 0.36047, 0.17506, 0.25156, 0.10679, 0.30551, 0.02923, 0.393, 0, 0.38982, 0.03216, 0.27959, 0.11548, 0.19756, 0.19972, 0.15036, 0.33116, 0.12508, 0.5536, 0.05639, 0.84316, 0.10397 ],
				"triangles": [ 11, 14, 15, 12, 13, 14, 11, 12, 14, 10, 15, 16, 11, 15, 10, 17, 10, 16, 8, 9, 17, 8, 17, 18, 18, 19, 8, 19, 0, 7, 7, 0, 6, 7, 8, 19, 6, 0, 1, 6, 1, 5, 5, 1, 2, 3, 4, 2, 4, 5, 2, 17, 9, 10 ],
				"vertices": [ 1, 1, -223.56, -122.99, 1, 1, 1, -244.86, -63.62, 1, 1, 1, -261.61, -12.63, 1, 1, 1, -227.54, 96.39, 1, 1, 1, -122.19, 191.94, 1, 1, 1, -64.19, 212.75, 1, 1, 1, 9.73, 189.19, 1, 1, 1, 116.87, 191.42, 1, 1, 1, 198.25, 108.41, 1, 1, 1, 263.3, 69.99, 1, 3, 1, 287.08, 34.2, 0.02192, 6, 35.01, 15.26, 0.9768, 7, -36.06, 25.47, 0.00127, 1, 7, 12.18, 18.35, 1, 1, 7, 72.52, 18.62, 1, 1, 7, 87.62, 7.17, 1, 1, 7, 46.98, -16.56, 1, 2, 6, 66.39, -15.22, 0.99522, 7, -15.31, -13.04, 0.00478, 1, 6, 9.01, -17.63, 1, 1, 1, 208.37, -45.49, 1, 1, 1, 81.78, -118.84, 1, 1, 1, -100.72, -164.94, 1 ],
				"hull": 20,
				"edges": [ 10, 2, 10, 12, 12, 14, 2, 0, 0, 38, 12, 0, 14, 38, 14, 16, 36, 38, 16, 36, 16, 18, 34, 36, 18, 34, 22, 30, 6, 8, 8, 10, 2, 4, 4, 6, 8, 4, 26, 28, 28, 30, 22, 24, 24, 26, 28, 24, 30, 32, 32, 34, 18, 20, 20, 22, 32, 20 ],
				"width": 647,
				"height": 383
			}
		},
		"pinna dx": {
			"pinna dx": {
				"type": "mesh",
				"uvs": [ 1, 0.79176, 0.85964, 0.9494, 0.62976, 1, 0.3652, 0.99999, 0.08266, 0.93967, 0, 0.65553, 0, 0.35506, 0.05909, 0.16629, 0.18238, 0, 0.36648, 0, 0.25732, 0.2316, 0.26445, 0.34461, 0.33181, 0.40092, 0.42941, 0.40091, 0.58224, 0.29387, 0.72608, 0.1012, 0.94735, 0.40675 ],
				"triangles": [ 14, 1, 2, 4, 12, 3, 2, 3, 13, 3, 12, 13, 0, 1, 16, 13, 14, 2, 15, 16, 1, 12, 5, 11, 12, 4, 5, 5, 6, 11, 1, 14, 15, 6, 10, 11, 6, 7, 10, 10, 7, 9, 7, 8, 9 ],
				"vertices": [ 1, 9, -40.83, 80.01, 1, 1, 9, 22.89, 106.05, 1, 2, 9, 113.9, 96.4, 0.99926, 10, -109.45, 37.99, 7.4E-4, 2, 9, 214.9, 70.62, 0.3389, 10, -13.46, 78.63, 0.6611, 2, 10, 95.16, 107.59, 0.99986, 11, -104.97, 30.76, 1.4E-4, 2, 10, 153.95, 52.26, 0.61159, 11, -30.06, 60.86, 0.38841, 2, 10, 184.41, -19.68, 0.00161, 11, 48.02, 58.27, 0.99839, 2, 11, 96.3, 33.38, 0.73521, 12, -15.21, 35.68, 0.26479, 1, 12, 49.68, 30.96, 1, 1, 12, 100.18, -21.11, 1, 4, 9, 206.69, -133.46, 0.0044, 10, 103.57, -88.77, 0.06103, 11, 76.74, -44.12, 0.25571, 12, 27.01, -32.19, 0.67886, 4, 9, 211.23, -104.3, 0.05486, 10, 89.52, -62.81, 0.40958, 11, 47.28, -45.96, 0.41195, 12, 7.88, -54.68, 0.12361, 4, 9, 189.14, -83.55, 0.29431, 10, 59.38, -59.67, 0.62051, 11, 31.77, -71.99, 0.0784, 12, 15.87, -83.91, 0.00679, 3, 9, 151.87, -74.05, 0.78898, 10, 23.97, -74.67, 0.20936, 11, 30.5, -110.43, 0.00166, 1, 9, 86.65, -86.12, 1, 1, 9, 19.35, -120.65, 1, 1, 9, -45.48, -22.12, 1 ],
				"hull": 17,
				"edges": [ 0, 32, 30, 32, 0, 2, 30, 2, 28, 30, 2, 4, 28, 4, 26, 28, 4, 6, 26, 6, 24, 26, 6, 8, 8, 10, 24, 8, 10, 12, 20, 12, 16, 18, 18, 20, 12, 14, 14, 16, 18, 14, 20, 22, 22, 24, 10, 22 ],
				"width": 394,
				"height": 260
			}
		},
		"pinna sx": {
			"pinna sx": {
				"type": "mesh",
				"uvs": [ 0.8881, 0.06717, 0.98757, 0.22128, 0.99999, 0.44764, 0.96779, 0.68489, 0.80841, 0.90381, 0.6223, 1, 0.27128, 0.86962, 0, 0.58016, 0.36453, 0.51085, 0.6278, 0.47879, 0.76005, 0.38474, 0.78183, 0.2038, 0.73462, 0.06412, 0.75754, 0 ],
				"triangles": [ 12, 13, 0, 11, 12, 0, 11, 0, 1, 10, 11, 1, 2, 10, 1, 3, 10, 2, 9, 10, 3, 5, 6, 7, 4, 9, 3, 8, 9, 4, 5, 8, 4, 5, 7, 8 ],
				"vertices": [ 1, 15, 32.72, -19.72, 1, 3, 13, 174.22, 53.4, 1.4E-4, 14, 92.94, -16.78, 0.69039, 15, -9.01, -23.64, 0.30947, 2, 13, 159.4, 7.87, 0.13518, 14, 50.81, -39.53, 0.86482, 2, 13, 132.71, -35.34, 0.80144, 14, 1.69, -52.41, 0.19856, 1, 13, 76.11, -62.29, 1, 1, 13, 22.6, -62.57, 1, 1, 13, -53.67, -2.1, 1, 1, 13, -97.71, 81.55, 1, 2, 13, -2.33, 58.8, 0.99723, 14, -31.17, 108.89, 0.00277, 2, 13, 65.14, 38.85, 0.57941, 14, 3.93, 47.91, 0.42059, 3, 13, 105.19, 44.08, 0.01024, 14, 36.53, 24.08, 0.91138, 15, -4.06, 45.84, 0.07838, 2, 14, 73.69, 34.58, 0.10579, 15, 24.46, 19.8, 0.89421, 1, 15, 55.95, 13.86, 1, 1, 15, 63.81, 1.28, 1 ],
				"hull": 14,
				"edges": [ 12, 14, 14, 16, 16, 8, 20, 4, 24, 26, 0, 26, 24, 0, 16, 18, 18, 20, 4, 6, 6, 8, 18, 6, 20, 22, 22, 24, 0, 2, 2, 4, 22, 2, 8, 10, 10, 12, 14, 10 ],
				"width": 266,
				"height": 211
			}
		}
	},
	"petrolio": {
		"petrolio": {
			"petrolio": { "x": 2.1, "y": 11.56, "rotation": -161.25, "width": 136, "height": 73 }
		}
	},
	"plastica": {
		"plastica": {
			"plastica": { "x": 5.12, "y": 3.36, "rotation": 87.89, "width": 179, "height": 158 }
		}
	},
	"veleno": {
		"bolla1": {
			"bolla1": { "rotation": -161.25, "width": 42, "height": 42 }
		},
		"bolla2": {
			"bolla2": { "rotation": -161.25, "width": 32, "height": 31 }
		},
		"bolla3": {
			"bolla3": { "rotation": -161.25, "width": 25, "height": 23 }
		},
		"bolla4": {
			"bolla4": { "rotation": -161.25, "width": 32, "height": 31 }
		},
		"teschio": {
			"teschio": { "scaleX": 0.289, "scaleY": 0.289, "rotation": -161.25, "width": 144, "height": 147 }
		}
	},
	"vomito": {
		"vomito": {
			"vomito": { "x": -12.49, "y": 14.6, "rotation": -161.25, "width": 45, "height": 112 }
		}
	}
},
"animations": {
	"idle": {
		"bones": {
			"root": {
				"rotate": [
					{ "time": 0, "angle": 0, "curve": "stepped" },
					{ "time": 1.3333, "angle": 0 }
				],
				"translate": [
					{ "time": 0, "x": 0, "y": 0, "curve": "stepped" },
					{ "time": 1.3333, "x": 0, "y": 0 }
				],
				"scale": [
					{ "time": 0, "x": 1, "y": 1, "curve": "stepped" },
					{ "time": 1.3333, "x": 1, "y": 1 }
				]
			},
			"manta": {
				"rotate": [
					{ "time": 0, "angle": 0, "curve": "stepped" },
					{ "time": 1.3333, "angle": 0 }
				],
				"translate": [
					{ "time": 0, "x": 0, "y": 0 },
					{ "time": 0.6667, "x": 3.36, "y": 12.31 },
					{ "time": 1.3333, "x": 0, "y": 0 }
				],
				"scale": [
					{ "time": 0, "x": 1, "y": 1, "curve": "stepped" },
					{ "time": 1.3333, "x": 1, "y": 1 }
				]
			},
			"pinna dx": {
				"rotate": [
					{ "time": 0, "angle": 0, "curve": "stepped" },
					{ "time": 1.3333, "angle": 0 }
				],
				"translate": [
					{ "time": 0, "x": 0, "y": 0, "curve": "stepped" },
					{ "time": 1.3333, "x": 0, "y": 0 }
				],
				"scale": [
					{ "time": 0, "x": 1, "y": 1, "curve": "stepped" },
					{ "time": 1.3333, "x": 1, "y": 1 }
				]
			},
			"pinna sx": {
				"rotate": [
					{ "time": 0, "angle": 0, "curve": "stepped" },
					{ "time": 1.3333, "angle": 0 }
				],
				"translate": [
					{ "time": 0, "x": 0, "y": 0, "curve": "stepped" },
					{ "time": 1.3333, "x": 0, "y": 0 }
				],
				"scale": [
					{ "time": 0, "x": 1, "y": 1, "curve": "stepped" },
					{ "time": 1.3333, "x": 1, "y": 1 }
				]
			},
			"pinna dx2": {
				"rotate": [
					{ "time": 0, "angle": 0 },
					{ "time": 0.6667, "angle": 4.65 },
					{ "time": 1.3333, "angle": 0 }
				],
				"translate": [
					{ "time": 0, "x": 0, "y": 0, "curve": "stepped" },
					{ "time": 1.3333, "x": 0, "y": 0 }
				],
				"scale": [
					{ "time": 0, "x": 1, "y": 1, "curve": "stepped" },
					{ "time": 1.3333, "x": 1, "y": 1 }
				]
			},
			"pinna dx3": {
				"rotate": [
					{ "time": 0, "angle": 0 },
					{ "time": 0.6667, "angle": 26.06 },
					{ "time": 1.3333, "angle": 0 }
				],
				"translate": [
					{ "time": 0, "x": 0, "y": 0, "curve": "stepped" },
					{ "time": 1.3333, "x": 0, "y": 0 }
				],
				"scale": [
					{ "time": 0, "x": 1, "y": 1, "curve": "stepped" },
					{ "time": 1.3333, "x": 1, "y": 1 }
				]
			},
			"pinna dx4": {
				"rotate": [
					{ "time": 0, "angle": 0 },
					{ "time": 0.6667, "angle": 26.06 },
					{ "time": 1.3333, "angle": 0 }
				],
				"translate": [
					{ "time": 0, "x": 0, "y": 0, "curve": "stepped" },
					{ "time": 1.3333, "x": 0, "y": 0 }
				],
				"scale": [
					{ "time": 0, "x": 1, "y": 1, "curve": "stepped" },
					{ "time": 1.3333, "x": 1, "y": 1 }
				]
			},
			"plastica": {
				"rotate": [
					{ "time": 0, "angle": 0, "curve": "stepped" },
					{ "time": 1.3333, "angle": 0 }
				],
				"translate": [
					{ "time": 0, "x": 0, "y": 0, "curve": "stepped" },
					{ "time": 1.3333, "x": 0, "y": 0 }
				],
				"scale": [
					{ "time": 0, "x": 1, "y": 1, "curve": "stepped" },
					{ "time": 1.3333, "x": 1, "y": 1 }
				]
			},
			"vomito": {
				"rotate": [
					{ "time": 0, "angle": 0, "curve": "stepped" },
					{ "time": 1.3333, "angle": 0 }
				],
				"translate": [
					{ "time": 0, "x": 0, "y": 0, "curve": "stepped" },
					{ "time": 1.3333, "x": 0, "y": 0 }
				],
				"scale": [
					{ "time": 0, "x": 1, "y": 1, "curve": "stepped" },
					{ "time": 1.3333, "x": 1, "y": 1 }
				]
			},
			"bolla1": {
				"rotate": [
					{ "time": 0, "angle": 0, "curve": "stepped" },
					{ "time": 1.3333, "angle": 0 }
				],
				"translate": [
					{ "time": 0, "x": 0, "y": 0, "curve": "stepped" },
					{ "time": 1.3333, "x": 0, "y": 0 }
				],
				"scale": [
					{ "time": 0, "x": 0.049, "y": 0.049 },
					{ "time": 0.1667, "x": 0.236, "y": 0.236 },
					{ "time": 0.5, "x": 0.469, "y": 0.469 },
					{ "time": 0.8333, "x": 0.703, "y": 0.703 },
					{ "time": 1.3333, "x": 0.049, "y": 0.049 }
				]
			},
			"bolla2": {
				"rotate": [
					{ "time": 0, "angle": 0, "curve": "stepped" },
					{ "time": 1.3333, "angle": 0 }
				],
				"translate": [
					{ "time": 0, "x": 0, "y": 0, "curve": "stepped" },
					{ "time": 1.3333, "x": 0, "y": 0 }
				],
				"scale": [
					{ "time": 0, "x": 0.04, "y": 0.04 },
					{ "time": 0.3333, "x": 0.335, "y": 0.335 },
					{ "time": 0.6667, "x": 0.597, "y": 0.597 },
					{ "time": 1, "x": 0.847, "y": 0.847 },
					{ "time": 1.3333, "x": 0.04, "y": 0.04 }
				]
			},
			"bolla4": {
				"rotate": [
					{ "time": 0, "angle": 0, "curve": "stepped" },
					{ "time": 1.3333, "angle": 0 }
				],
				"translate": [
					{ "time": 0, "x": 0, "y": 0, "curve": "stepped" },
					{ "time": 1.3333, "x": 0, "y": 0 }
				],
				"scale": [
					{ "time": 0, "x": 0.088, "y": 0.088 },
					{ "time": 0.5, "x": 0.448, "y": 0.448 },
					{ "time": 0.8333, "x": 0.68, "y": 0.68 },
					{ "time": 1.1667, "x": 0.897, "y": 0.897 },
					{ "time": 1.3333, "x": 0.088, "y": 0.088 }
				]
			},
			"bolla3": {
				"rotate": [
					{ "time": 0, "angle": 0, "curve": "stepped" },
					{ "time": 1.3333, "angle": 0 }
				],
				"translate": [
					{ "time": 0, "x": 0, "y": 0, "curve": "stepped" },
					{ "time": 1.3333, "x": 0, "y": 0 }
				],
				"scale": [
					{ "time": 0, "x": 0.035, "y": 0.035 },
					{ "time": 0.2667, "x": 0.476, "y": 0.476 },
					{ "time": 0.6, "x": 0.678, "y": 0.678 },
					{ "time": 0.9333, "x": 0.882, "y": 0.882 },
					{ "time": 1.3333, "x": 0.035, "y": 0.035 }
				]
			},
			"teschio": {
				"rotate": [
					{ "time": 0, "angle": 0 },
					{ "time": 0.3333, "angle": -26.1 },
					{ "time": 0.6667, "angle": 27.46 },
					{ "time": 1, "angle": -26.1 },
					{ "time": 1.3333, "angle": 0 }
				],
				"translate": [
					{ "time": 0, "x": 0, "y": 0, "curve": "stepped" },
					{ "time": 1.3333, "x": 0, "y": 0 }
				],
				"scale": [
					{ "time": 0, "x": 1, "y": 1, "curve": "stepped" },
					{ "time": 1.3333, "x": 1, "y": 1 }
				]
			},
			"petrolio": {
				"rotate": [
					{ "time": 0, "angle": 0, "curve": "stepped" },
					{ "time": 1.3333, "angle": 0 }
				],
				"translate": [
					{ "time": 0, "x": 0, "y": 0, "curve": "stepped" },
					{ "time": 1.3333, "x": 0, "y": 0 }
				],
				"scale": [
					{ "time": 0, "x": 1, "y": 1, "curve": "stepped" },
					{ "time": 1.3333, "x": 1, "y": 1 }
				]
			},
			"manta2": {
				"rotate": [
					{ "time": 0, "angle": 0, "curve": "stepped" },
					{ "time": 1.3333, "angle": 0 }
				],
				"translate": [
					{ "time": 0, "x": 0, "y": 0, "curve": "stepped" },
					{ "time": 1.3333, "x": 0, "y": 0 }
				],
				"scale": [
					{ "time": 0, "x": 1, "y": 1, "curve": "stepped" },
					{ "time": 1.3333, "x": 1, "y": 1 }
				]
			},
			"manta3": {
				"rotate": [
					{ "time": 0, "angle": 0 },
					{ "time": 0.6667, "angle": 21.92 },
					{ "time": 1.3333, "angle": 0 }
				],
				"translate": [
					{ "time": 0, "x": 0, "y": 0, "curve": "stepped" },
					{ "time": 1.3333, "x": 0, "y": 0 }
				],
				"scale": [
					{ "time": 0, "x": 1, "y": 1, "curve": "stepped" },
					{ "time": 1.3333, "x": 1, "y": 1 }
				]
			},
			"pinna sx2": {
				"rotate": [
					{ "time": 0, "angle": 0 },
					{ "time": 0.6667, "angle": -27.26 },
					{ "time": 1.3333, "angle": 0 }
				],
				"translate": [
					{ "time": 0, "x": 0, "y": 0, "curve": "stepped" },
					{ "time": 1.3333, "x": 0, "y": 0 }
				],
				"scale": [
					{ "time": 0, "x": 1, "y": 1, "curve": "stepped" },
					{ "time": 1.3333, "x": 1, "y": 1 }
				]
			},
			"pinna sx3": {
				"rotate": [
					{ "time": 0, "angle": 0 },
					{ "time": 0.6667, "angle": -19.68 },
					{ "time": 1.3333, "angle": 0 }
				],
				"translate": [
					{ "time": 0, "x": 0, "y": 0, "curve": "stepped" },
					{ "time": 1.3333, "x": 0, "y": 0 }
				],
				"scale": [
					{ "time": 0, "x": 1, "y": 1, "curve": "stepped" },
					{ "time": 1.3333, "x": 1, "y": 1 }
				]
			}
		}
	}
}
}