%YAML 1.1
%TAG !u! tag:unity3d.com,2011:
--- !u!1045 &1
EditorBuildSettings:
  m_ObjectHideFlags: 0
  serializedVersion: 2
  m_Scenes:
  - enabled: 1
    path: Assets/Scenes/Intro.unity
    guid: 78b66dc55b311b44580a964daf2268ab
  - enabled: 1
    path: Assets/Scenes/MainMenu.unity
    guid: 633b6afdcb494f147a64bf5192aeeb37
  - enabled: 1
    path: Assets/Scenes/Hub.unity
    guid: bca235d725c894349bceeb1fd3ff02dc
  - enabled: 1
    path: Assets/Scenes/Dungeon.unity
    guid: b12b7efd672f25c4a8e6c85db8510529
  - enabled: 1
    path: Assets/Scenes/MenuToHub.unity
    guid: 1cbff08f65069be4ab327488726e4fce
  - enabled: 1
    path: Assets/Scenes/DungeonToHub.unity
    guid: 1240d93076d85724c9a88271f6025101
  - enabled: 1
    path: Assets/Scenes/New Scene.unity
    guid: 7058ce5313f701946b824148ded929ec
  - enabled: 1
    path: Assets/Scenes/HubToDungeon.unity
    guid: 028ed7559e80d934e85774afcc983997
  m_configObjects: {}
