%YAML 1.1
%TAG !u! tag:unity3d.com,2011:
--- !u!114 &11400000
MonoBehaviour:
  m_ObjectHideFlags: 0
  m_CorrespondingSourceObject: {fileID: 0}
  m_PrefabInstance: {fileID: 0}
  m_PrefabAsset: {fileID: 0}
  m_GameObject: {fileID: 0}
  m_Enabled: 1
  m_EditorHideFlags: 0
  m_Script: {fileID: 11500000, guid: 5f60c798f02eeff42b78bfc3e07a5ad6, type: 3}
  m_Name: ManiacEffect
  m_EditorClassIdentifier: 
  target: {fileID: 0}
  enemy: {fileID: 0}
  duration: 0
  hasBeenUsed: 0
  strenghtModifier: 0
  intellectModifier: 0
  agilityModifier: 0
  neuralResistenceModifier: 8
  luckModifier: 0
  neuralHealthModifier: 0
  animSpeedModifier: 0
  currentHealthModifier: 0
