%YAML 1.1
%TAG !u! tag:unity3d.com,2011:
--- !u!114 &11400000
MonoBehaviour:
  m_ObjectHideFlags: 0
  m_CorrespondingSourceObject: {fileID: 0}
  m_PrefabInstance: {fileID: 0}
  m_PrefabAsset: {fileID: 0}
  m_GameObject: {fileID: 0}
  m_Enabled: 1
  m_EditorHideFlags: 0
  m_Script: {fileID: 11500000, guid: ee7c058519ad6c542a91c84a78c8b1db, type: 3}
  m_Name: CoralloRosso
  m_EditorClassIdentifier: 
  title: Corallo rosso
  image: {fileID: 21300000, guid: 2bbd59ab13652364fbb36784bb145341, type: 3}
  description: "Oggi questa specie del Mediterraneo rischia l'estinzione per via dell'inquinamento,
    dell\u2019acidit\xE0 del mare e delle condizioni di vita particolari di cui ha
    bisogno per sopravvivere"
