%YAML 1.1
%TAG !u! tag:unity3d.com,2011:
--- !u!114 &11400000
MonoBehaviour:
  m_ObjectHideFlags: 0
  m_CorrespondingSourceObject: {fileID: 0}
  m_PrefabInstance: {fileID: 0}
  m_PrefabAsset: {fileID: 0}
  m_GameObject: {fileID: 0}
  m_Enabled: 1
  m_EditorHideFlags: 0
  m_Script: {fileID: 11500000, guid: ee7c058519ad6c542a91c84a78c8b1db, type: 3}
  m_Name: DelfinoComune
  m_EditorClassIdentifier: 
  title: Delfino comune
  image: {fileID: 21300000, guid: 0ea252c615b625148ace570314aaea6d, type: 3}
  description: L'inquinamento da agenti chimici e il sovrasfruttamento delle risorse
    possono aver influito molto sulla diminuzione di questa specie in acque italiane.
