%YAML 1.1
%TAG !u! tag:unity3d.com,2011:
--- !u!114 &11400000
MonoBehaviour:
  m_ObjectHideFlags: 0
  m_CorrespondingSourceObject: {fileID: 0}
  m_PrefabInstance: {fileID: 0}
  m_PrefabAsset: {fileID: 0}
  m_GameObject: {fileID: 0}
  m_Enabled: 1
  m_EditorHideFlags: 0
  m_Script: {fileID: 11500000, guid: ee7c058519ad6c542a91c84a78c8b1db, type: 3}
  m_Name: Plastica
  m_EditorClassIdentifier: 
  title: Tartaruga di mare
  image: {fileID: 21300000, guid: 9b4371bec308feb4e90d6395ebb7aaa0, type: 3}
  description: 'Le tartarughe marine che abitano i nostri mari e oceani sono fortemente
    minacciate dall''uomo. La presenza di plastica soffoca le tartarughe marine: una
    tartaruga marina su due nel Mediterraneo ingerisce plastica.'
