%YAML 1.1
%TAG !u! tag:unity3d.com,2011:
--- !u!114 &11400000
MonoBehaviour:
  m_ObjectHideFlags: 0
  m_CorrespondingSourceObject: {fileID: 0}
  m_PrefabInstance: {fileID: 0}
  m_PrefabAsset: {fileID: 0}
  m_GameObject: {fileID: 0}
  m_Enabled: 1
  m_EditorHideFlags: 0
  m_Script: {fileID: 11500000, guid: c4356ce3527f9fa419d42fce1d2c9e45, type: 3}
  m_Name: Chronomancy
  m_EditorClassIdentifier: 
  name: Chronomancy
  cardArchetypes: 0300000000000000
  cardRarity: 1
  artwork: {fileID: 0}
  triggers:
  - trigger: 0
    life: 5
    effectUsed: 0
    effects:
    - {fileID: 11400000, guid: 83970eec19e216e48952f15075103ab3, type: 2}
    description: 
    canActivate: 0
  - trigger: 6
    life: 5
    effectUsed: 0
    effects:
    - {fileID: 11400000, guid: 1a2aea98f31393d40816277528152d1e, type: 2}
    description: 
    canActivate: 0
  cardLife: 5
