%YAML 1.1
%TAG !u! tag:unity3d.com,2011:
--- !u!114 &11400000
MonoBehaviour:
  m_ObjectHideFlags: 0
  m_CorrespondingSourceObject: {fileID: 0}
  m_PrefabInstance: {fileID: 0}
  m_PrefabAsset: {fileID: 0}
  m_GameObject: {fileID: 0}
  m_Enabled: 1
  m_EditorHideFlags: 0
  m_Script: {fileID: 11500000, guid: c4356ce3527f9fa419d42fce1d2c9e45, type: 3}
  m_Name: General Card
  m_EditorClassIdentifier: 
  name: Spell
  cardArchetypes: 00000000
  cardRarity: 0
  artwork: {fileID: 21300000, guid: a4a4cedc3da259f41a0fe783769f1c8c, type: 3}
  triggers:
  - trigger: 0
    life: 0
    effectUsed: 0
    effects:
    - {fileID: 11400000, guid: a7da4eba9cb3b6e4cb35a850330dff2c, type: 2}
    - {fileID: 11400000, guid: e374c39a760e71046a2cff3a6976724a, type: 2}
    description: 
    canActivate: 0
  cardLife: 2
