%YAML 1.1
%TAG !u! tag:unity3d.com,2011:
--- !u!114 &11400000
MonoBehaviour:
  m_ObjectHideFlags: 0
  m_CorrespondingSourceObject: {fileID: 0}
  m_PrefabInstance: {fileID: 0}
  m_PrefabAsset: {fileID: 0}
  m_GameObject: {fileID: 0}
  m_Enabled: 1
  m_EditorHideFlags: 0
  m_Script: {fileID: 11500000, guid: c4356ce3527f9fa419d42fce1d2c9e45, type: 3}
  m_Name: Versatility
  m_EditorClassIdentifier: 
  name: Versatility
  cardArchetypes: 0200000001000000
  cardRarity: 1
  artwork: {fileID: 0}
  triggers:
  - trigger: 2
    life: 5
    effectUsed: 0
    effects:
    - {fileID: 11400000, guid: 6e4b7f984a1e40c4cb95b260f428b226, type: 2}
    description: 
    canActivate: 0
  - trigger: 15
    life: 5
    effectUsed: 0
    effects:
    - {fileID: 11400000, guid: e374c39a760e71046a2cff3a6976724a, type: 2}
    description: 
    canActivate: 0
  cardLife: 5
