%YAML 1.1
%TAG !u! tag:unity3d.com,2011:
--- !u!687078895 &4343727234628468602
SpriteAtlas:
  m_ObjectHideFlags: 0
  m_CorrespondingSourceObject: {fileID: 0}
  m_PrefabInstance: {fileID: 0}
  m_PrefabAsset: {fileID: 0}
  m_Name: SelectLevels
  m_EditorData:
    serializedVersion: 2
    textureSettings:
      serializedVersion: 2
      anisoLevel: 1
      compressionQuality: 50
      maxTextureSize: 2048
      textureCompression: 0
      filterMode: 1
      generateMipMaps: 0
      readable: 0
      crunchedCompression: 0
      sRGB: 1
    platformSettings: []
    packingSettings:
      serializedVersion: 2
      padding: 4
      blockOffset: 1
      allowAlphaSplitting: 0
      enableRotation: 0
      enableTightPacking: 0
    variantMultiplier: 1
    packables:
    - {fileID: 102900000, guid: 419236c945568384699187b608a98e9d, type: 3}
    totalSpriteSurfaceArea: 1481640
    bindAsDefault: 1
  m_MasterAtlas: {fileID: 0}
  m_PackedSprites:
  - {fileID: 21300000, guid: 9b7fdf1275980f54b8741f41fa3e534b, type: 3}
  - {fileID: 21300000, guid: 66bed154681ff8b4a9b151c3171612e8, type: 3}
  - {fileID: 21300000, guid: ca9ca396c590e2a4ba8061345f905d72, type: 3}
  - {fileID: 21300000, guid: 7f53816b0ac62714a8bc8f1788cc5541, type: 3}
  - {fileID: 21300000, guid: e01fbddcc9cb12340bd2cb8eea1361fd, type: 3}
  - {fileID: 21300000, guid: 87744f7e8823cc24bbe6a30186b9e283, type: 3}
  - {fileID: 21300000, guid: f7f2fcce7ff716544aff415fe960c20b, type: 3}
  - {fileID: 21300000, guid: 4bf761df7f18b8f4b970912f321c2a0e, type: 3}
  m_PackedSpriteNamesToIndex:
  - livello abisso off
  - livello abisso on
  - livello spiaggia off resized
  - selezione livelli bottone on
  - livello corallo off
  - livello corallo on
  - selezione livelli bottone off
  - livello spiaggia on resized
  m_Tag: SelectLevels
  m_IsVariant: 0
