%YAML 1.1
%TAG !u! tag:unity3d.com,2011:
--- !u!114 &11400000
MonoBehaviour:
  m_ObjectHideFlags: 0
  m_CorrespondingSourceObject: {fileID: 0}
  m_PrefabInstance: {fileID: 0}
  m_PrefabAsset: {fileID: 0}
  m_GameObject: {fileID: 0}
  m_Enabled: 1
  m_EditorHideFlags: 0
  m_Script: {fileID: 11500000, guid: 2c8a22539f35c584aa3ebe1bc7ea1849, type: 3}
  m_Name: New Chunk Enemies Debuff
  m_EditorClassIdentifier: 
  target: {fileID: 0}
  enemy: {fileID: 0}
  duration: 0
  hasBeenUsed: 0
  debuff:
    stat: 3
    statInstantMod: -10
    ricorrente: 0
    time: 0
    totDuration: 10
    modifier: 0
    permanent: 0
