%YAML 1.1
%TAG !u! tag:unity3d.com,2011:
--- !u!114 &11400000
MonoBehaviour:
  m_ObjectHideFlags: 0
  m_CorrespondingSourceObject: {fileID: 0}
  m_PrefabInstance: {fileID: 0}
  m_PrefabAsset: {fileID: 0}
  m_GameObject: {fileID: 0}
  m_Enabled: 1
  m_EditorHideFlags: 0
  m_Script: {fileID: 11500000, guid: 12f4b67b95cbc9a43bfd4247aea268ab, type: 3}
  m_Name: Mission 3
  m_EditorClassIdentifier: 
  missionIndex: 2
  startRoom: {fileID: 8795673887948025590, guid: 2c10ee11eac6e4f43a0d588a2f90a684,
    type: 3}
  finishRoom: {fileID: 8795673887948025590, guid: ce9dde0fbdbb9354596c59de6199e319,
    type: 3}
  plotRoom: {fileID: 7995523836209417903, guid: cc30631cbd8ae1f4a8223407c6a2f7b1,
    type: 3}
  minRooms: 4
  pool: {fileID: 11400000, guid: 9b225405b04f62846bebfefdd67157a4, type: 2}
  dropCardList:
  - {fileID: 11400000, guid: 42365d852d220124d915eb9e50598974, type: 2}
  - {fileID: 11400000, guid: 9043c506eac4a024cbedee33262052a3, type: 2}
  - {fileID: 11400000, guid: fa7fb5441feb7574ca5dd12d7f8c2787, type: 2}
  - {fileID: 11400000, guid: c780dc811bf14ae49ab8cacce9e3f5ac, type: 2}
  - {fileID: 11400000, guid: e0e1c8ecac402c045a27ab3d5ffd86f3, type: 2}
  - {fileID: 11400000, guid: ce898b3d27bc9994d9f6450101305eba, type: 2}
  - {fileID: 11400000, guid: 1ac11ddbe2cb6f14d921168a17cf2f06, type: 2}
  - {fileID: 11400000, guid: beb7ec37711e29c4482da1c15005cfa3, type: 2}
  - {fileID: 11400000, guid: c30bf909ef411c84893433886d114d80, type: 2}
  - {fileID: 11400000, guid: 9289fbcb75ceae44b968e65a474ebc21, type: 2}
  - {fileID: 11400000, guid: fbe239c80c0941b4da29477f371697df, type: 2}
  - {fileID: 11400000, guid: 6d2793be1f60aae41ba78ec90f5dce85, type: 2}
  - {fileID: 11400000, guid: 0cb74b43a900d2f4cba0e100f4f4aee6, type: 2}
  - {fileID: 11400000, guid: cd4fcfaa1480d744fb037b0570395c34, type: 2}
  - {fileID: 11400000, guid: 5fb9256a8981fed4f9feb9f40458c18d, type: 2}
  - {fileID: 11400000, guid: 74c02f5116ebc5442a6d15f4aa68858b, type: 2}
  - {fileID: 11400000, guid: d870b55e5cef84f41888684c77c53a6b, type: 2}
  - {fileID: 11400000, guid: fc26a0bb4eab3964092940658595983d, type: 2}
  - {fileID: 11400000, guid: 33ec4d305a0f8aa4ea06d9e43ce8ded8, type: 2}
  - {fileID: 11400000, guid: 3ca64a5d153e4944d9c7d647bc0fd7cd, type: 2}
  - {fileID: 11400000, guid: b1a60d760d608064399dea9d0688964f, type: 2}
  - {fileID: 11400000, guid: 92fd5d808cfbcf341a400bec9135c768, type: 2}
  - {fileID: 11400000, guid: a6267ac3fb0108e4099e3e1ab578cd9d, type: 2}
  - {fileID: 11400000, guid: d0ecc9c4f1dc56a428ee26aac0f6ba63, type: 2}
  - {fileID: 11400000, guid: 95f11e05d676f2b44873ce50b21c994d, type: 2}
  - {fileID: 11400000, guid: 121103386b90eee4187a1b79bbcb0686, type: 2}
  - {fileID: 11400000, guid: 8d7825364b3d03241aa7a5190207f75d, type: 2}
  - {fileID: 11400000, guid: cac0a70c4d33d7c408b82c32a105b7ff, type: 2}
  - {fileID: 11400000, guid: eee870487dfb69c459b3682690e5546f, type: 2}
  - {fileID: 11400000, guid: c8c514202416d0d468bcce48b2056dc1, type: 2}
  - {fileID: 11400000, guid: 64e6ccab84239c54b99f559d3e0b6727, type: 2}
  - {fileID: 11400000, guid: dbbf8d9fbe987fd4398779e8ccdb812e, type: 2}
  - {fileID: 11400000, guid: 85785d98028b3674b9154d99ec00419c, type: 2}
  - {fileID: 11400000, guid: af6ac124e304e2248b09b8633d84ffe4, type: 2}
  - {fileID: 11400000, guid: 45018300858b41c49a641486be830143, type: 2}
  - {fileID: 11400000, guid: 4e6c6e1c925e88b4a96d265650130053, type: 2}
  - {fileID: 11400000, guid: e2f131e8a2c3bcc4191280aa8464a885, type: 2}
  - {fileID: 11400000, guid: 276c6cd63b33dca49856029e3d06051f, type: 2}
  - {fileID: 11400000, guid: 16a1bf5fc3bb69745a1eeb2cac1eac58, type: 2}
  - {fileID: 11400000, guid: 67f54d50d78184f4891c035077c315d4, type: 2}
  - {fileID: 11400000, guid: 91eebba1400bee44e93c6de97c2b7e9d, type: 2}
  - {fileID: 11400000, guid: c455e49bca4dbbf4aa0a6722e3d41211, type: 2}
  - {fileID: 11400000, guid: eaa306bdbcf6db6448fbc39b9907b77b, type: 2}
  - {fileID: 11400000, guid: fa7470ef7686fe34684a2ea1f951f504, type: 2}
  - {fileID: 11400000, guid: d7425f281064b184dbc99a73a58bb693, type: 2}
  - {fileID: 11400000, guid: d127ed0fbe8d1c747b81ada983504a30, type: 2}
  - {fileID: 11400000, guid: a56c95ae215311646befd7470ab53930, type: 2}
  - {fileID: 11400000, guid: 7f2c7d9952db26941bcedcdf992c4afc, type: 2}
  - {fileID: 11400000, guid: ca27165e58af2e94db5a35f222009b5f, type: 2}
  - {fileID: 11400000, guid: 73b7051ef0badd847b55bca570ed117e, type: 2}
  - {fileID: 11400000, guid: 76d9b2d6203d6f34bb1363b554f5b42a, type: 2}
  - {fileID: 11400000, guid: 09569d687af176443a578027baf56acf, type: 2}
  - {fileID: 11400000, guid: e5b64bdc1f7cfc44697da1ba2bc3c154, type: 2}
  commonDropCards: []
  unCommonDropCards: []
  rareDropCards: []
  commonTopThreshold: 60
  unCommonTopThreshold: 93
  enemiesMin: 25
  enemiesMax: 42
  enemiesLVMin: 12
  enemiesLVMax: 14
  trapsCountMin: 12
  trapsCountMax: 15
