%YAML 1.1
%TAG !u! tag:unity3d.com,2011:
--- !u!21 &2100000
Material:
  serializedVersion: 6
  m_ObjectHideFlags: 0
  m_CorrespondingSourceObject: {fileID: 0}
  m_PrefabInstance: {fileID: 0}
  m_PrefabAsset: {fileID: 0}
  m_Name: Dissolve
  m_Shader: {fileID: 4800000, guid: 4edbd2aecf2e19445a76f186bbd601df, type: 3}
  m_ShaderKeywords: _ACTIVATEEMISSION_ON _ENABLERIMLIGHT_ON _LAYERNOISE_ON _TINTINSIDECOLOR_ON
  m_LightmapFlags: 4
  m_EnableInstancingVariants: 0
  m_DoubleSidedGI: 0
  m_CustomRenderQueue: -1
  stringTagMap: {}
  disabledShaderPasses: []
  m_SavedProperties:
    serializedVersion: 3
    m_TexEnvs:
    - _Albedo:
        m_Texture: {fileID: 0}
        m_Scale: {x: 1, y: 1}
        m_Offset: {x: 0, y: 0}
    - _Bordertexture:
        m_Texture: {fileID: 0}
        m_Scale: {x: 1, y: 1}
        m_Offset: {x: 0, y: 0}
    - _BumpMap:
        m_Texture: {fileID: 0}
        m_Scale: {x: 1, y: 1}
        m_Offset: {x: 0, y: 0}
    - _DetailAlbedoMap:
        m_Texture: {fileID: 0}
        m_Scale: {x: 1, y: 1}
        m_Offset: {x: 0, y: 0}
    - _DetailMask:
        m_Texture: {fileID: 0}
        m_Scale: {x: 1, y: 1}
        m_Offset: {x: 0, y: 0}
    - _DetailNormalMap:
        m_Texture: {fileID: 0}
        m_Scale: {x: 1, y: 1}
        m_Offset: {x: 0, y: 0}
    - _DissolveTex:
        m_Texture: {fileID: 2800000, guid: f6cb9e3c424264140ad53091e1392777, type: 3}
        m_Scale: {x: 1, y: 1}
        m_Offset: {x: 0, y: 0}
    - _Emission:
        m_Texture: {fileID: 0}
        m_Scale: {x: 1, y: 1}
        m_Offset: {x: 0, y: 0}
    - _EmissionMap:
        m_Texture: {fileID: 0}
        m_Scale: {x: 1, y: 1}
        m_Offset: {x: 0, y: 0}
    - _MainTex:
        m_Texture: {fileID: 0}
        m_Scale: {x: 1, y: 1}
        m_Offset: {x: 0, y: 0}
    - _MetallicGlossMap:
        m_Texture: {fileID: 0}
        m_Scale: {x: 1, y: 1}
        m_Offset: {x: 0, y: 0}
    - _Normal:
        m_Texture: {fileID: 0}
        m_Scale: {x: 1, y: 1}
        m_Offset: {x: 0, y: 0}
    - _Occlusion:
        m_Texture: {fileID: 0}
        m_Scale: {x: 1, y: 1}
        m_Offset: {x: 0, y: 0}
    - _OcclusionMap:
        m_Texture: {fileID: 0}
        m_Scale: {x: 1, y: 1}
        m_Offset: {x: 0, y: 0}
    - _ParallaxMap:
        m_Texture: {fileID: 0}
        m_Scale: {x: 1, y: 1}
        m_Offset: {x: 0, y: 0}
    - _Secondaryemission:
        m_Texture: {fileID: 0}
        m_Scale: {x: 1, y: 1}
        m_Offset: {x: 0, y: 0}
    - _Secondaryemissionnoise:
        m_Texture: {fileID: 0}
        m_Scale: {x: 1, y: 1}
        m_Offset: {x: 0, y: 0}
    - _Specular:
        m_Texture: {fileID: 0}
        m_Scale: {x: 1, y: 1}
        m_Offset: {x: 0, y: 0}
    - _texcoord:
        m_Texture: {fileID: 0}
        m_Scale: {x: 1, y: 1}
        m_Offset: {x: 0, y: 0}
    m_Floats:
    - _Activateemission: 1
    - _Activatesecondaryemission: 0
    - _Borderwidth: 0
    - _BumpPower: 1
    - _BumpScale: 1
    - _Cutoff: 0.5
    - _DetailNormalMapScale: 1
    - _DissolveEdgeMultiplier: 1
    - _DissolveEdgeRange: 0
    - _DissolveIntensity: 0
    - _DstBlend: 0
    - _Enablerimlight: 1
    - _Fill: 0.54
    - _GlossMapScale: 1
    - _Glossiness: 0.5
    - _GlossyReflections: 1
    - _Invertmask: 0
    - _Layernoise: 1
    - _Metallic: 0
    - _Mode: 0
    - _Noisescale: 7
    - _Noisetexopacity: 1
    - _OcclusionStrength: 1
    - _Parallax: 0.02
    - _Rimlightbias: -0.09
    - _Rimlightpower: 2.53
    - _Rimlightscale: 1.03
    - _SecondaryEmissionDesaturation: 0
    - _SecondaryEmissionNoiseDesaturation: 0
    - _Smoothness: 0
    - _SmoothnessTextureChannel: 0
    - _SpecularHighlights: 1
    - _SrcBlend: 1
    - _Tintinsidecolor: 1
    - _UVSec: 0
    - _Wave1amplitude: 0.104
    - _Wave1frequency: 0
    - _Wave1offset: 6.26
    - _Wave2Frequency: 0
    - _Wave2amplitude: 0
    - _Wave2offset: 0.18
    - _Worldcoordinates: 0
    - _ZWrite: 1
    - __dirty: 1
    m_Colors:
    - _Basecolor: {r: 0, g: 0, b: 0, a: 1}
    - _Bordercolor: {r: 1, g: 1, b: 1, a: 0}
    - _Color: {r: 1, g: 1, b: 1, a: 1}
    - _DissolveEdgeColor: {r: 1, g: 1, b: 1, a: 0}
    - _EmissionColor: {r: 0, g: 0, b: 0, a: 1}
    - _Emissiontexspeed: {r: 1.39, g: 0.32, b: 0, a: 0}
    - _Emissiontextiling: {r: 1, g: -5.64, b: 0, a: 0}
    - _Fillcolor: {r: 1, g: 0.040395662, b: 0, a: 1}
    - _Mainoffset: {r: 0.24, g: 0, b: 0, a: 0}
    - _Maintiling: {r: 1.12, g: 1, b: 0, a: 0}
    - _Noisespeed: {r: 0.66, g: 0.82, b: 0.48, a: 1.11}
    - _Noisetexspeed: {r: 1, g: 1, b: 1, a: 1}
    - _Noisetextiling: {r: 1, g: 1, b: 0, a: 0}
    - _Rimlightcolor: {r: 1, g: 1, b: 1, a: 1}
    - _Secondaryemissioncolor: {r: 0, g: 1, b: 0.9676416, a: 1}
    - _Secondaryemissionspeed: {r: 0, g: 0, b: 0, a: 0}
    - _Secondaryemissiontiling: {r: 1, g: 1, b: 0, a: 0}
