%YAML 1.1
%TAG !u! tag:unity3d.com,2011:
--- !u!687078895 &4343727234628468602
SpriteAtlas:
  m_ObjectHideFlags: 0
  m_CorrespondingSourceObject: {fileID: 0}
  m_PrefabInstance: {fileID: 0}
  m_PrefabAsset: {fileID: 0}
  m_Name: Arrows
  m_EditorData:
    serializedVersion: 2
    textureSettings:
      serializedVersion: 2
      anisoLevel: 1
      compressionQuality: 50
      maxTextureSize: 2048
      textureCompression: 0
      filterMode: 1
      generateMipMaps: 0
      readable: 0
      crunchedCompression: 0
      sRGB: 1
    platformSettings: []
    packingSettings:
      serializedVersion: 2
      padding: 4
      blockOffset: 1
      allowAlphaSplitting: 0
      enableRotation: 0
      enableTightPacking: 0
    variantMultiplier: 1
    packables:
    - {fileID: 102900000, guid: b4400ad5e4d587841bfb6f7d6feefdaf, type: 3}
    totalSpriteSurfaceArea: 9190292
    bindAsDefault: 1
  m_MasterAtlas: {fileID: 0}
  m_PackedSprites:
  - {fileID: 21300000, guid: 4b86ff4151891d149919882363093f0d, type: 3}
  - {fileID: 21300000, guid: 53d590920af8a8948aaa7e62e0d720e6, type: 3}
  - {fileID: 21300000, guid: 622377b441d0f9044ac212fb0306ff9d, type: 3}
  - {fileID: 21300000, guid: 228b7d5935c25144cad9f7d346cc9ed7, type: 3}
  - {fileID: 21300000, guid: 8e356f8a0c5c25f4080906d5dd7e16b6, type: 3}
  - {fileID: 21300000, guid: 4658cc1bb4ff67342b237e922ec94e91, type: 3}
  - {fileID: 21300000, guid: d471bd8c109a9fa47a5f6d9f99782131, type: 3}
  - {fileID: 21300000, guid: 61d325beed7837a49aaa314c1086570b, type: 3}
  - {fileID: 21300000, guid: 8e9d0cce0fe637943930ccfc2f254bcb, type: 3}
  - {fileID: 21300000, guid: c5da308fdc262104183a480b511f0804, type: 3}
  m_PackedSpriteNamesToIndex:
  - Down
  - 'Trail '
  - Up
  - right
  - UpLeft
  - DownLeft
  - UpRight
  - DownRight
  - Circle
  - left
  m_Tag: Arrows
  m_IsVariant: 0
