%YAML 1.1
%TAG !u! tag:unity3d.com,2011:
--- !u!114 &11400000
MonoBehaviour:
  m_ObjectHideFlags: 0
  m_CorrespondingSourceObject: {fileID: 0}
  m_PrefabInstance: {fileID: 0}
  m_PrefabAsset: {fileID: 0}
  m_GameObject: {fileID: 0}
  m_Enabled: 1
  m_EditorHideFlags: 0
  m_Script: {fileID: 11500000, guid: d3914422e845393489d4617e0bd8e05b, type: 3}
  m_Name: Pool 5
  m_EditorClassIdentifier: 
  rooms:
  - {fileID: 1009008695135379599, guid: e4f416064edbf2b498c02d26e7e850dd, type: 3}
  - {fileID: 5815287383118229002, guid: fb2c9cc78611336428204718a99933ca, type: 3}
  - {fileID: 6774224422647147919, guid: ab72fe59b5be90848a3709f032b4374f, type: 3}
  - {fileID: 1358108052343867135, guid: a171ae89c5d8d8f4dac3bd9fd731aaf4, type: 3}
  - {fileID: 3467022583691574353, guid: eeddb7f02ed483e439b7b3639d382ce7, type: 3}
  - {fileID: 6503160861895547799, guid: cb19419be4fbaf44b8fb0ee08ec1063a, type: 3}
  - {fileID: 596059692742565011, guid: 7da36a514fba05f41921fed3dff777d2, type: 3}
  - {fileID: 4123330524199656002, guid: 47ee58e8444b1f6409d9043d3e99e7d6, type: 3}
  - {fileID: 4789921509606008546, guid: 969896c3edfb50c4b8b0e343ae3fe2b6, type: 3}
  - {fileID: 7503136104967568724, guid: 76046b25d155873439855478f06ea695, type: 3}
  - {fileID: 639970103386379314, guid: c91665531094c904993a90856966a1bc, type: 3}
  - {fileID: 3787007454362960350, guid: aaa5a2f0f0e67a048b173b9507c5758b, type: 3}
  - {fileID: 6946087433323089620, guid: ae6dc569b7abb8e4cb1cd149cbd49296, type: 3}
  - {fileID: 249306231067564956, guid: 3f034de5982ea0d4abf9667c201b4c94, type: 3}
  - {fileID: 1015522015444495946, guid: 4969d58987fb8e049b5b10bb3f127943, type: 3}
  - {fileID: 4219361580230866915, guid: e4fec09074a0ced47a9bd65a4f176010, type: 3}
  - {fileID: 7785680271976106401, guid: e000760e8a1e3bf4ea41b09d741e19f8, type: 3}
  - {fileID: 2455064163783896084, guid: 648c742cf3b9776428ad849aa8476df2, type: 3}
  - {fileID: 254345921929867269, guid: ba95f070c59d880449904d274cc1bc06, type: 3}
  - {fileID: 4466333896132870005, guid: 06f644b520ad3a34485a80c530146c30, type: 3}
  - {fileID: 8476503453345621762, guid: 94b16d854f527a74793e1b5ebe43a6aa, type: 3}
  - {fileID: 1953175900820348007, guid: 4fb14b526655038489a8b63abef10209, type: 3}
  - {fileID: 8604182797458388656, guid: 40b5d6e5b3e85a5419e3ad49ba7ca81d, type: 3}
  - {fileID: 5664123028931477741, guid: c62408b880ff9c14eb5672df6eebd5a9, type: 3}
