%YAML 1.1
%TAG !u! tag:unity3d.com,2011:
--- !u!114 &11400000
MonoBehaviour:
  m_ObjectHideFlags: 0
  m_CorrespondingSourceObject: {fileID: 0}
  m_PrefabInstance: {fileID: 0}
  m_PrefabAsset: {fileID: 0}
  m_GameObject: {fileID: 0}
  m_Enabled: 1
  m_EditorHideFlags: 0
  m_Script: {fileID: 11500000, guid: d3914422e845393489d4617e0bd8e05b, type: 3}
  m_Name: Pool 1
  m_EditorClassIdentifier: 
  rooms:
  - {fileID: 8942068934715882950, guid: 11bfafcb28a1b4b468138ac02c7d7a3c, type: 3}
  - {fileID: 4649293055778495425, guid: e834f952004ff4a4a8d30ec107388129, type: 3}
  - {fileID: 8789262737094623809, guid: 093ee4964dd1e4f45b46fb93a0d30d7c, type: 3}
  - {fileID: 2147220430, guid: c6a788c6866f1474985c08ad614a0bcd, type: 3}
  - {fileID: 1346289726, guid: a33512455c14caf4f8d1af144d7001d1, type: 3}
  - {fileID: 1558504346495715062, guid: c7efed10a39eadd4c9b32bb3e6f25bcb, type: 3}
  - {fileID: 2209814460668191743, guid: e34b9142b5660c4498251dcaca88b84f, type: 3}
  - {fileID: 5660364958020431795, guid: 548c1fdba5f1a4b4ea97b93c9e841cde, type: 3}
  - {fileID: 3095988441163891467, guid: a1e53c430fa49834cbbeace7031af4dd, type: 3}
  - {fileID: 8260488276972542423, guid: 9a772b6d7b2edba41af16aa3e0c95f3d, type: 3}
  - {fileID: 2990800065751019549, guid: 29908329396007848ab9e22b19dfc59f, type: 3}
  - {fileID: 6620910835060839810, guid: 724a448a2531a3b4cad2b009d3370df4, type: 3}
  - {fileID: 7995523836209417903, guid: cc30631cbd8ae1f4a8223407c6a2f7b1, type: 3}
  - {fileID: 1833048068, guid: 72ff79dd080e65945863c4355b6c62af, type: 3}
  - {fileID: 6573334254460882412, guid: 13f1a2d2eaa77184db43edd5b0cdced0, type: 3}
  - {fileID: 2025015945135332398, guid: 3de17d57046d9a444b7f552cbe078415, type: 3}
