%YAML 1.1
%TAG !u! tag:unity3d.com,2011:
--- !u!114 &11400000
MonoBehaviour:
  m_ObjectHideFlags: 0
  m_CorrespondingSourceObject: {fileID: 0}
  m_PrefabInstance: {fileID: 0}
  m_PrefabAsset: {fileID: 0}
  m_GameObject: {fileID: 0}
  m_Enabled: 1
  m_EditorHideFlags: 0
  m_Script: {fileID: 11500000, guid: 63fb186eace815c43a252b3fbd6d9d66, type: 3}
  m_Name: A_02 Adrenaline
  m_EditorClassIdentifier: 
  name: Adrenaline
  type: 0
  description: When your health is below a certain percentage you gain more speed
  trigger:
    trigger: 3
    life: 0
    effectUsed: 0
    effects:
    - {fileID: 11400000, guid: 606282757f911fc4fb25a8666fdd299d, type: 2}
    description: 
    canActivate: 0
  abilityPointsNeeded: 4
  icon: {fileID: 21300000, guid: 88d9df7a7974ad04db0ca208c32fbd7b, type: 3}
