%YAML 1.1
%TAG !u! tag:unity3d.com,2011:
--- !u!114 &11400000
MonoBehaviour:
  m_ObjectHideFlags: 0
  m_CorrespondingSourceObject: {fileID: 0}
  m_PrefabInstance: {fileID: 0}
  m_PrefabAsset: {fileID: 0}
  m_GameObject: {fileID: 0}
  m_Enabled: 1
  m_EditorHideFlags: 0
  m_Script: {fileID: 11500000, guid: 63fb186eace815c43a252b3fbd6d9d66, type: 3}
  m_Name: A_04 WIP
  m_EditorClassIdentifier: 
  name: Xenomorph
  type: 0
  description: When on low HP summons a cluster of gas that damages nearby enemies.
  trigger:
    trigger: 3
    life: 0
    effectUsed: 0
    effects:
    - {fileID: 11400000, guid: 201e54a77a9392b449cad7de935446f0, type: 2}
    description: 
    canActivate: 0
  abilityPointsNeeded: 5
  icon: {fileID: 21300000, guid: 88d9df7a7974ad04db0ca208c32fbd7b, type: 3}
