%YAML 1.1
%TAG !u! tag:unity3d.com,2011:
--- !u!114 &11400000
MonoBehaviour:
  m_ObjectHideFlags: 0
  m_CorrespondingSourceObject: {fileID: 0}
  m_PrefabInstance: {fileID: 0}
  m_PrefabAsset: {fileID: 0}
  m_GameObject: {fileID: 0}
  m_Enabled: 1
  m_EditorHideFlags: 0
  m_Script: {fileID: 11500000, guid: 70712d2eba4c3c34abd3e79ca7942081, type: 3}
  m_Name: Normale
  m_EditorClassIdentifier: 
  minNoteOffset: 0.2
  maxNoteOffset: 0.4
  longNoteOffset: 0.4
  longNote1Offset: 0.25
  longNote2Offset: 0.35
  doubleNoteOffset: 0.45
  tripleNoteOffset: 0.6
  moveX:
  - 3.5
  - 3.8
  - 4.5
  - 5
  minNotes: 4
  maxNotes: 10
  backGround: {fileID: 21300000, guid: 0005825fbbef98d4786f37cd7fb230cd, type: 3}
