%YAML 1.1
%TAG !u! tag:unity3d.com,2011:
--- !u!114 &11400000
MonoBehaviour:
  m_ObjectHideFlags: 0
  m_CorrespondingSourceObject: {fileID: 0}
  m_PrefabInstance: {fileID: 0}
  m_PrefabAsset: {fileID: 0}
  m_GameObject: {fileID: 0}
  m_Enabled: 1
  m_EditorHideFlags: 0
  m_Script: {fileID: 11500000, guid: cba08dc2642a8c549b357a40084d2552, type: 3}
  m_Name: Next Attack Debuff
  m_EditorClassIdentifier: 
  target: {fileID: 0}
  enemy: {fileID: 0}
  duration: 0
  hasBeenUsed: 0
  debuff:
    stat: 6
    statInstantMod: 0
    ricorrente: 80
    time: 2
    totDuration: 6
    modifier: 0
    permanent: 1
  onlyOnce: 0
