%YAML 1.1
%TAG !u! tag:unity3d.com,2011:
--- !u!114 &11400000
MonoBehaviour:
  m_ObjectHideFlags: 0
  m_CorrespondingSourceObject: {fileID: 0}
  m_PrefabInstance: {fileID: 0}
  m_PrefabAsset: {fileID: 0}
  m_GameObject: {fileID: 0}
  m_Enabled: 1
  m_EditorHideFlags: 0
  m_Script: {fileID: 11500000, guid: 63fb186eace815c43a252b3fbd6d9d66, type: 3}
  m_Name: A_19 Restore point
  m_EditorClassIdentifier: 
  name: Restore point
  type: 0
  description: You lose less cards if you die.
  trigger:
    trigger: 0
    life: 0
    effectUsed: 0
    effects:
    - {fileID: 11400000, guid: 2b4d0b32274a54b4a9aff069acaffa5a, type: 2}
    description: 
    canActivate: 0
  abilityPointsNeeded: 12
  icon: {fileID: 21300000, guid: 88d9df7a7974ad04db0ca208c32fbd7b, type: 3}
