%YAML 1.1
%TAG !u! tag:unity3d.com,2011:
--- !u!114 &11400000
MonoBehaviour:
  m_ObjectHideFlags: 0
  m_CorrespondingSourceObject: {fileID: 0}
  m_PrefabInstance: {fileID: 0}
  m_PrefabAsset: {fileID: 0}
  m_GameObject: {fileID: 0}
  m_Enabled: 1
  m_EditorHideFlags: 0
  m_Script: {fileID: 11500000, guid: c4356ce3527f9fa419d42fce1d2c9e45, type: 3}
  m_Name: C_00 Health Serum
  m_EditorClassIdentifier: 
  name: Health Serum
  cardArchetypes: 00000000
  cardRarity: 0
  artwork: {fileID: 21300000, guid: cc4babe4929059b478804dc48fc31b2c, type: 3}
  triggers:
  - trigger: 6
    life: 3
    effectUsed: 0
    effects:
    - {fileID: 11400000, guid: 84610e21125d5e94d97bbb08bb2848f3, type: 2}
    description: Recover 300 Health Points
    canActivate: 0
  cardLife: 0
  cardDescription: 'Consumable: Recover 400 Health Points.'
