%YAML 1.1
%TAG !u! tag:unity3d.com,2011:
--- !u!114 &11400000
MonoBehaviour:
  m_ObjectHideFlags: 0
  m_CorrespondingSourceObject: {fileID: 0}
  m_PrefabInstance: {fileID: 0}
  m_PrefabAsset: {fileID: 0}
  m_GameObject: {fileID: 0}
  m_Enabled: 1
  m_EditorHideFlags: 0
  m_Script: {fileID: 11500000, guid: c4356ce3527f9fa419d42fce1d2c9e45, type: 3}
  m_Name: C_04 Tonic
  m_EditorClassIdentifier: 
  name: Tonic
  cardArchetypes: 00000000
  cardRarity: 2
  artwork: {fileID: 21300000, guid: 3ce04ccf4b81f0a41a4c3d1ddb34eef7, type: 3}
  triggers:
  - trigger: 6
    life: 2
    effectUsed: 0
    effects:
    - {fileID: 11400000, guid: bf5a530eced99744495960efdaf93087, type: 2}
    - {fileID: 11400000, guid: fe1de993ac8b88746baafefb3b6b7ed4, type: 2}
    description: You recover Health Points and gain Neural Resistance
    canActivate: 0
  cardLife: 0
  cardDescription: 'Consumable: Recover Health Points and gain Neural Resistance for
    a while.'
