%YAML 1.1
%TAG !u! tag:unity3d.com,2011:
--- !u!114 &11400000
MonoBehaviour:
  m_ObjectHideFlags: 0
  m_CorrespondingSourceObject: {fileID: 0}
  m_PrefabInstance: {fileID: 0}
  m_PrefabAsset: {fileID: 0}
  m_GameObject: {fileID: 0}
  m_Enabled: 1
  m_EditorHideFlags: 0
  m_Script: {fileID: 11500000, guid: c4356ce3527f9fa419d42fce1d2c9e45, type: 3}
  m_Name: C_06 Str-gear
  m_EditorClassIdentifier: 
  name: Str-gear
  cardArchetypes: 03000000
  cardRarity: 0
  artwork: {fileID: 21300000, guid: 7409eccdd2043234b981e2cecf35aab4, type: 3}
  triggers:
  - trigger: 0
    life: 3
    effectUsed: 0
    effects:
    - {fileID: 11400000, guid: 259e225520003974cb1e019f8fab5404, type: 2}
    description: You gain more strength
    canActivate: 0
  cardLife: 0
  cardDescription: 'Accessory: Gain more Strength.'
