%YAML 1.1
%TAG !u! tag:unity3d.com,2011:
--- !u!114 &11400000
MonoBehaviour:
  m_ObjectHideFlags: 0
  m_CorrespondingSourceObject: {fileID: 0}
  m_PrefabInstance: {fileID: 0}
  m_PrefabAsset: {fileID: 0}
  m_GameObject: {fileID: 0}
  m_Enabled: 1
  m_EditorHideFlags: 0
  m_Script: {fileID: 11500000, guid: c4356ce3527f9fa419d42fce1d2c9e45, type: 3}
  m_Name: C_16 Cyber Charm
  m_EditorClassIdentifier: 
  name: Stylish ring
  cardArchetypes: 03000000
  cardRarity: 0
  artwork: {fileID: 21300000, guid: 205828d3951554b4a8015958746b6d00, type: 3}
  triggers:
  - trigger: 0
    life: 3
    effectUsed: 0
    effects:
    - {fileID: 11400000, guid: ee741645e56acb94d8033b21eb79d3c6, type: 2}
    description: You gain more luck
    canActivate: 0
  cardLife: 0
  cardDescription: 'Accessory: Gain more Luck.'
