%YAML 1.1
%TAG !u! tag:unity3d.com,2011:
--- !u!114 &11400000
MonoBehaviour:
  m_ObjectHideFlags: 0
  m_CorrespondingSourceObject: {fileID: 0}
  m_PrefabInstance: {fileID: 0}
  m_PrefabAsset: {fileID: 0}
  m_GameObject: {fileID: 0}
  m_Enabled: 1
  m_EditorHideFlags: 0
  m_Script: {fileID: 11500000, guid: c4356ce3527f9fa419d42fce1d2c9e45, type: 3}
  m_Name: C_17 Leaden Strength
  m_EditorClassIdentifier: 
  name: Leaden Strength
  cardArchetypes: 03000000
  cardRarity: 2
  artwork: {fileID: 21300000, guid: c0a806e72264fa74289b2d68cec1d308, type: 3}
  triggers:
  - trigger: 0
    life: 3
    effectUsed: 0
    effects:
    - {fileID: 11400000, guid: 2052aadfe046a97428071110e7f8d4ab, type: 2}
    - {fileID: 11400000, guid: b4d95c4d90754c54d91d46f393246dde, type: 2}
    description: You gain more strength but lose speed
    canActivate: 0
  cardLife: 0
  cardDescription: 'Accessory: Gain more Strength but lose speed.'
