%YAML 1.1
%TAG !u! tag:unity3d.com,2011:
--- !u!114 &11400000
MonoBehaviour:
  m_ObjectHideFlags: 0
  m_CorrespondingSourceObject: {fileID: 0}
  m_PrefabInstance: {fileID: 0}
  m_PrefabAsset: {fileID: 0}
  m_GameObject: {fileID: 0}
  m_Enabled: 1
  m_EditorHideFlags: 0
  m_Script: {fileID: 11500000, guid: c4356ce3527f9fa419d42fce1d2c9e45, type: 3}
  m_Name: C_18 Neural Flood
  m_EditorClassIdentifier: 
  name: Neaural Flood
  cardArchetypes: 03000000
  cardRarity: 2
  artwork: {fileID: 21300000, guid: 0571b041cc5ef1d4a805063cde267293, type: 3}
  triggers:
  - trigger: 0
    life: 3
    effectUsed: 0
    effects:
    - {fileID: 11400000, guid: cb03b2a3cebfb3a4a999382f0eb5b703, type: 2}
    description: You gain dexterity but lose resistance
    canActivate: 0
  cardLife: 0
  cardDescription: 'Accessory: Gain Dexterity but lose Neural Resistance.'
