%YAML 1.1
%TAG !u! tag:unity3d.com,2011:
--- !u!114 &11400000
MonoBehaviour:
  m_ObjectHideFlags: 0
  m_CorrespondingSourceObject: {fileID: 0}
  m_PrefabInstance: {fileID: 0}
  m_PrefabAsset: {fileID: 0}
  m_GameObject: {fileID: 0}
  m_Enabled: 1
  m_EditorHideFlags: 0
  m_Script: {fileID: 11500000, guid: c4356ce3527f9fa419d42fce1d2c9e45, type: 3}
  m_Name: C_35 Chronomancy
  m_EditorClassIdentifier: 
  name: Chronomancy
  cardArchetypes: 0300000000000000
  cardRarity: 1
  artwork: {fileID: 21300000, guid: bbe3da13e4f961341b71b117e29687a5, type: 3}
  triggers:
  - trigger: 0
    life: 3
    effectUsed: 0
    effects:
    - {fileID: 11400000, guid: 975f665258b5de646a9f6dd6358a712b, type: 2}
    description: Your active ability's cooldown gets reduced
    canActivate: 0
  - trigger: 6
    life: 2
    effectUsed: 0
    effects:
    - {fileID: 11400000, guid: 751625c3f70602947987bfc46360a4f7, type: 2}
    description: Throws a grenade taht deals damage and freezes enemies
    canActivate: 0
  cardLife: 2
  cardDescription: 'Accessory: Your active ability''s cooldown gets reduced.

    Consumable: Throws a grenade that deals damage scaling on tech and freezes enemies.'
