%YAML 1.1
%TAG !u! tag:unity3d.com,2011:
--- !u!114 &11400000
MonoBehaviour:
  m_ObjectHideFlags: 0
  m_CorrespondingSourceObject: {fileID: 0}
  m_PrefabInstance: {fileID: 0}
  m_PrefabAsset: {fileID: 0}
  m_GameObject: {fileID: 0}
  m_Enabled: 1
  m_EditorHideFlags: 0
  m_Script: {fileID: 11500000, guid: c4356ce3527f9fa419d42fce1d2c9e45, type: 3}
  m_Name: C_41
  m_EditorClassIdentifier: 
  name: Hazmat suit
  cardArchetypes: 01000000
  cardRarity: 1
  artwork: {fileID: 21300000, guid: 1e49b103776210d4ea800ecb5d9837bb, type: 3}
  triggers:
  - trigger: 0
    life: 3
    effectUsed: 0
    effects:
    - {fileID: 11400000, guid: 464dad21881f1f344be07ae06eb514bd, type: 2}
    description: 
    canActivate: 0
  cardLife: 0
  cardDescription: 'Armor: Debuffs inflicted on you last less.'
