%YAML 1.1
%TAG !u! tag:unity3d.com,2011:
--- !u!114 &11400000
MonoBehaviour:
  m_ObjectHideFlags: 0
  m_CorrespondingSourceObject: {fileID: 0}
  m_PrefabInstance: {fileID: 0}
  m_PrefabAsset: {fileID: 0}
  m_GameObject: {fileID: 0}
  m_Enabled: 1
  m_EditorHideFlags: 0
  m_Script: {fileID: 11500000, guid: c4356ce3527f9fa419d42fce1d2c9e45, type: 3}
  m_Name: C_43 Hammered
  m_EditorClassIdentifier: 
  name: Concussion
  cardArchetypes: 02000000
  cardRarity: 2
  artwork: {fileID: 21300000, guid: dab77e8aa5ac18d4b82bf62f7127b6c1, type: 3}
  triggers:
  - trigger: 14
    life: 1
    effectUsed: 0
    effects:
    - {fileID: 11400000, guid: fa0418e1f53bd574d93e4c59520c24fe, type: 2}
    description: 
    canActivate: 0
  cardLife: 1
  cardDescription: 'Weapon: Your third combo attack freeze your enemies.'
