%YAML 1.1
%TAG !u! tag:unity3d.com,2011:
--- !u!114 &11400000
MonoBehaviour:
  m_ObjectHideFlags: 0
  m_CorrespondingSourceObject: {fileID: 0}
  m_PrefabInstance: {fileID: 0}
  m_PrefabAsset: {fileID: 0}
  m_GameObject: {fileID: 0}
  m_Enabled: 1
  m_EditorHideFlags: 0
  m_Script: {fileID: 11500000, guid: c4356ce3527f9fa419d42fce1d2c9e45, type: 3}
  m_Name: C_45 Heavyweight
  m_EditorClassIdentifier: 
  name: Heavyweight
  cardArchetypes: 01000000
  cardRarity: 2
  artwork: {fileID: 21300000, guid: 9d0782f624f7b3048854168c32a76acf, type: 3}
  triggers:
  - trigger: 0
    life: 2
    effectUsed: 0
    effects:
    - {fileID: 11400000, guid: 8a7b997ff3cd4e04aaabec15b115b210, type: 2}
    - {fileID: 11400000, guid: 29d53cbdc754d5242a42127ab0310760, type: 2}
    description: 
    canActivate: 0
  cardLife: 1
  cardDescription: 'Armor: Gain more Strength, but lose speed'
