%YAML 1.1
%TAG !u! tag:unity3d.com,2011:
--- !u!114 &11400000
MonoBehaviour:
  m_ObjectHideFlags: 0
  m_CorrespondingSourceObject: {fileID: 0}
  m_PrefabInstance: {fileID: 0}
  m_PrefabAsset: {fileID: 0}
  m_GameObject: {fileID: 0}
  m_Enabled: 1
  m_EditorHideFlags: 0
  m_Script: {fileID: 11500000, guid: c4356ce3527f9fa419d42fce1d2c9e45, type: 3}
  m_Name: C_46 Cursed Object X
  m_EditorClassIdentifier: 
  name: Cheater's ring
  cardArchetypes: 03000000
  cardRarity: 1
  artwork: {fileID: 21300000, guid: d69d46adc0bceb8428d064360a924235, type: 3}
  triggers:
  - trigger: 5
    life: 3
    effectUsed: 0
    effects:
    - {fileID: 11400000, guid: 122534bd859fec246be60e8039b35011, type: 2}
    description: 
    canActivate: 0
  cardLife: 1
  cardDescription: 'Accessory: Each time you enter in a new chunk, you get healed
    by 600'
