%YAML 1.1
%TAG !u! tag:unity3d.com,2011:
--- !u!114 &11400000
MonoBehaviour:
  m_ObjectHideFlags: 0
  m_CorrespondingSourceObject: {fileID: 0}
  m_PrefabInstance: {fileID: 0}
  m_PrefabAsset: {fileID: 0}
  m_GameObject: {fileID: 0}
  m_Enabled: 1
  m_EditorHideFlags: 0
  m_Script: {fileID: 11500000, guid: c4356ce3527f9fa419d42fce1d2c9e45, type: 3}
  m_Name: C_51 Speed Steroid
  m_EditorClassIdentifier: 
  name: Speed Steroid
  cardArchetypes: 00000000
  cardRarity: 0
  artwork: {fileID: 21300000, guid: b2155e40aa9238b4bad7b0d6b331e33c, type: 3}
  triggers:
  - trigger: 6
    life: 2
    effectUsed: 0
    effects:
    - {fileID: 11400000, guid: 72fad82b47a797e4593873b6464071da, type: 2}
    description: 
    canActivate: 0
  cardLife: 0
  cardDescription: 'Consumable: Gain more speed for a few seconds.'
