%YAML 1.1
%TAG !u! tag:unity3d.com,2011:
--- !u!114 &11400000
MonoBehaviour:
  m_ObjectHideFlags: 0
  m_CorrespondingSourceObject: {fileID: 0}
  m_PrefabInstance: {fileID: 0}
  m_PrefabAsset: {fileID: 0}
  m_GameObject: {fileID: 0}
  m_Enabled: 1
  m_EditorHideFlags: 0
  m_Script: {fileID: 11500000, guid: c4356ce3527f9fa419d42fce1d2c9e45, type: 3}
  m_Name: C_57 Mc Guyver
  m_EditorClassIdentifier: 
  name: SWAT suit
  cardArchetypes: 0000000001000000
  cardRarity: 1
  artwork: {fileID: 21300000, guid: 1625546bc6773704088c2f59dcb9831d, type: 3}
  triggers:
  - trigger: 6
    life: 3
    effectUsed: 0
    effects:
    - {fileID: 11400000, guid: ce689242ccfd3574c99a7c4e0aedb0f1, type: 2}
    description: 
    canActivate: 0
  - trigger: 6
    life: 2
    effectUsed: 0
    effects:
    - {fileID: 11400000, guid: 75f2da63c42301848a148135092be979, type: 2}
    description: 
    canActivate: 0
  cardLife: 0
  cardDescription: 'Consumable: Throw a grenade.

    Armor: Whenever you use a consumable, gain more Neural Resistance for a few seconds.

'
