%YAML 1.1
%TAG !u! tag:unity3d.com,2011:
--- !u!114 &11400000
MonoBehaviour:
  m_ObjectHideFlags: 0
  m_CorrespondingSourceObject: {fileID: 0}
  m_PrefabInstance: {fileID: 0}
  m_PrefabAsset: {fileID: 0}
  m_GameObject: {fileID: 0}
  m_Enabled: 1
  m_EditorHideFlags: 0
  m_Script: {fileID: 11500000, guid: c4356ce3527f9fa419d42fce1d2c9e45, type: 3}
  m_Name: C_59 Patient Snake Ring
  m_EditorClassIdentifier: 
  name: Smuggler's ring
  cardArchetypes: 0000000003000000
  cardRarity: 2
  artwork: {fileID: 21300000, guid: 3aa09b8fb3061ef4da50cab77d54eb6b, type: 3}
  triggers:
  - trigger: 6
    life: 1
    effectUsed: 0
    effects:
    - {fileID: 11400000, guid: e16fb58dc12d8fa47bb7aa91e3d5670b, type: 2}
    description: 
    canActivate: 0
  - trigger: 0
    life: 3
    effectUsed: 0
    effects:
    - {fileID: 11400000, guid: 3df348ce2dab4f545a5e1e8d3b8c7217, type: 2}
    - {fileID: 11400000, guid: d1837481a4e625b4286773c762c36446, type: 2}
    description: 
    canActivate: 0
  cardLife: 1
  cardDescription: 'Consumable: Weapons deal more damage for a fews econds.

    Accessory: Gain more Luck, but your weapons deal less damage.'
