%YAML 1.1
%TAG !u! tag:unity3d.com,2011:
--- !u!114 &11400000
MonoBehaviour:
  m_ObjectHideFlags: 0
  m_CorrespondingSourceObject: {fileID: 0}
  m_PrefabInstance: {fileID: 0}
  m_PrefabAsset: {fileID: 0}
  m_GameObject: {fileID: 0}
  m_Enabled: 1
  m_EditorHideFlags: 0
  m_Script: {fileID: 11500000, guid: c4356ce3527f9fa419d42fce1d2c9e45, type: 3}
  m_Name: C_64
  m_EditorClassIdentifier: 
  name: Collectionist
  cardArchetypes: 02000000
  cardRarity: 1
  artwork: {fileID: 21300000, guid: 7da914697d3e8d8419ebf8be960ddc10, type: 3}
  triggers:
  - trigger: 6
    life: 2
    effectUsed: 0
    effects:
    - {fileID: 11400000, guid: 2e463677920909744a70d7d866ecdb49, type: 2}
    description: Whenever you use a consumable, get a temporary barrier
    canActivate: 0
  cardLife: 0
  cardDescription: 'Weapon: Whenever you use a consumable, your weapons gain more
    base damage for a few seconds.'
