%YAML 1.1
%TAG !u! tag:unity3d.com,2011:
--- !u!114 &11400000
MonoBehaviour:
  m_ObjectHideFlags: 0
  m_CorrespondingSourceObject: {fileID: 0}
  m_PrefabInstance: {fileID: 0}
  m_PrefabAsset: {fileID: 0}
  m_GameObject: {fileID: 0}
  m_Enabled: 1
  m_EditorHideFlags: 0
  m_Script: {fileID: 11500000, guid: c4356ce3527f9fa419d42fce1d2c9e45, type: 3}
  m_Name: Particles
  m_EditorClassIdentifier: 
  name: Particles
  cardArchetypes: 00000000
  cardRarity: 0
  artwork: {fileID: 21300000, guid: a4a4cedc3da259f41a0fe783769f1c8c, type: 3}
  triggers:
  - trigger: 6
    life: 3
    effectUsed: 0
    effects:
    - {fileID: 11400000, guid: e10e268a2041315469b74eed17b0004d, type: 2}
    description: 
    canActivate: 0
  cardLife: 0
  cardDescription: Particles Attack
