%YAML 1.1
%TAG !u! tag:unity3d.com,2011:
--- !u!687078895 &4343727234628468602
SpriteAtlas:
  m_ObjectHideFlags: 0
  m_CorrespondingSourceObject: {fileID: 0}
  m_PrefabInstance: {fileID: 0}
  m_PrefabAsset: {fileID: 0}
  m_Name: Lines
  m_EditorData:
    serializedVersion: 2
    textureSettings:
      serializedVersion: 2
      anisoLevel: 1
      compressionQuality: 50
      maxTextureSize: 2048
      textureCompression: 0
      filterMode: 1
      generateMipMaps: 0
      readable: 0
      crunchedCompression: 0
      sRGB: 1
    platformSettings: []
    packingSettings:
      serializedVersion: 2
      padding: 4
      blockOffset: 1
      allowAlphaSplitting: 0
      enableRotation: 0
      enableTightPacking: 0
    variantMultiplier: 1
    packables:
    - {fileID: 102900000, guid: 8e1692cd26eef3a48847b090bfc39cb5, type: 3}
    totalSpriteSurfaceArea: 303982
    bindAsDefault: 1
  m_MasterAtlas: {fileID: 0}
  m_PackedSprites:
  - {fileID: 21300000, guid: da8771a4f0c13a544a30953664ad4b94, type: 3}
  - {fileID: 21300000, guid: 098d5fa4fc9f378489418c4b970b0f1b, type: 3}
  - {fileID: 21300000, guid: d9ebf856d926162428af9c82ceb4cbbe, type: 3}
  - {fileID: 21300000, guid: d47265978f42dc04f87420d30aedbcc1, type: 3}
  - {fileID: 21300000, guid: ed85a8599db76eb4cb45978c985dd3ca, type: 3}
  - {fileID: 21300000, guid: d33faee98dcf9e642a8b3c5975d72553, type: 3}
  m_PackedSpriteNamesToIndex:
  - RowOff
  - TriggerSquare
  - Trigger
  - ArrowCircle
  - TriggerCut
  - RowOn
  m_Tag: Lines
  m_IsVariant: 0
