%YAML 1.1
%TAG !u! tag:unity3d.com,2011:
--- !u!114 &11400000
MonoBehaviour:
  m_ObjectHideFlags: 0
  m_CorrespondingSourceObject: {fileID: 0}
  m_PrefabInstance: {fileID: 0}
  m_PrefabAsset: {fileID: 0}
  m_GameObject: {fileID: 0}
  m_Enabled: 1
  m_EditorHideFlags: 0
  m_Script: {fileID: 11500000, guid: 63fb186eace815c43a252b3fbd6d9d66, type: 3}
  m_Name: RangedShoot
  m_EditorClassIdentifier: 
  name: RangedShoot
  type: 1
  description: Shoot up to 3 bullets in front of you
  trigger:
    trigger: 16
    life: 0
    effectUsed: 0
    effects:
    - {fileID: 11400000, guid: 37827be2b65da6f47bdd9acea49142d9, type: 2}
    description: 
    canActivate: 0
  abilityPointsNeeded: 4
  icon: {fileID: 21300000, guid: 7d985ccc305262147ab2a9ddb115ae40, type: 3}
