%YAML 1.1
%TAG !u! tag:unity3d.com,2011:
--- !u!114 &11400000
MonoBehaviour:
  m_ObjectHideFlags: 0
  m_CorrespondingSourceObject: {fileID: 0}
  m_PrefabInstance: {fileID: 0}
  m_PrefabAsset: {fileID: 0}
  m_GameObject: {fileID: 0}
  m_Enabled: 1
  m_EditorHideFlags: 0
  m_Script: {fileID: 11500000, guid: 63fb186eace815c43a252b3fbd6d9d66, type: 3}
  m_Name: Thunder 5
  m_EditorClassIdentifier: 
  isUnlocked: 0
  isEquipped: 0
  name: Thunder 5
  type: 0
  description: 
  trigger:
    trigger: 0
    life: 0
    effectUsed: 0
    effects:
    - {fileID: 11400000, guid: e374c39a760e71046a2cff3a6976724a, type: 2}
    description: 
    canActivate: 0
  abilityPointsNeeded: 3
  icon: {fileID: 21300000, guid: a4a4cedc3da259f41a0fe783769f1c8c, type: 3}
