%YAML 1.1
%TAG !u! tag:unity3d.com,2011:
--- !u!21 &2100000
Material:
  serializedVersion: 6
  m_ObjectHideFlags: 0
  m_CorrespondingSourceObject: {fileID: 0}
  m_PrefabInstance: {fileID: 0}
  m_PrefabAsset: {fileID: 0}
  m_Name: JailerDissolve
  m_Shader: {fileID: 4800000, guid: b7cf98c56a17ab246b1bb06dd93b7d70, type: 3}
  m_ShaderKeywords: _ENABLERIMLIGHT_ON _TINTINSIDECOLOR_ON
  m_LightmapFlags: 4
  m_EnableInstancingVariants: 0
  m_DoubleSidedGI: 0
  m_CustomRenderQueue: -1
  stringTagMap: {}
  disabledShaderPasses: []
  m_SavedProperties:
    serializedVersion: 3
    m_TexEnvs:
    - _AO:
        m_Texture: {fileID: 2800000, guid: d4ff42af363ee9b48b2fddd99eb2c09d, type: 3}
        m_Scale: {x: 1, y: 1}
        m_Offset: {x: 0, y: 0}
    - _Albedo:
        m_Texture: {fileID: 0}
        m_Scale: {x: 1, y: 1}
        m_Offset: {x: 0, y: 0}
    - _Bordertexture:
        m_Texture: {fileID: 0}
        m_Scale: {x: 1, y: 1}
        m_Offset: {x: 0, y: 0}
    - _BumpMap:
        m_Texture: {fileID: 0}
        m_Scale: {x: 1, y: 1}
        m_Offset: {x: 0, y: 0}
    - _DetailAlbedoMap:
        m_Texture: {fileID: 0}
        m_Scale: {x: 1, y: 1}
        m_Offset: {x: 0, y: 0}
    - _DetailMask:
        m_Texture: {fileID: 0}
        m_Scale: {x: 1, y: 1}
        m_Offset: {x: 0, y: 0}
    - _DetailNormalMap:
        m_Texture: {fileID: 0}
        m_Scale: {x: 1, y: 1}
        m_Offset: {x: 0, y: 0}
    - _Emission:
        m_Texture: {fileID: 0}
        m_Scale: {x: 1, y: 1}
        m_Offset: {x: 0, y: 0}
    - _EmissionMap:
        m_Texture: {fileID: 0}
        m_Scale: {x: 1, y: 1}
        m_Offset: {x: 0, y: 0}
    - _Gradient:
        m_Texture: {fileID: 0}
        m_Scale: {x: 1, y: 1}
        m_Offset: {x: 0, y: 0}
    - _MainTex:
        m_Texture: {fileID: 2800000, guid: 126ec7288ea696f4088107ce110fa129, type: 3}
        m_Scale: {x: 1, y: 1}
        m_Offset: {x: 0, y: 0}
    - _MetallicGlossMap:
        m_Texture: {fileID: 0}
        m_Scale: {x: 1, y: 1}
        m_Offset: {x: 0, y: 0}
    - _MetallicSmooth:
        m_Texture: {fileID: 2800000, guid: be96557ba431a7c4a987ea24d15c5560, type: 3}
        m_Scale: {x: 1, y: 1}
        m_Offset: {x: 0, y: 0}
    - _Noise:
        m_Texture: {fileID: 2800000, guid: f086f00eb8960e249b747ee8d8dd5e80, type: 3}
        m_Scale: {x: 1, y: 1}
        m_Offset: {x: 0, y: 0}
    - _Normal:
        m_Texture: {fileID: 2800000, guid: 9adda0edda0936c4eaf7bf750df0225d, type: 3}
        m_Scale: {x: 1, y: 1}
        m_Offset: {x: 0, y: 0}
    - _Occlusion:
        m_Texture: {fileID: 0}
        m_Scale: {x: 1, y: 1}
        m_Offset: {x: 0, y: 0}
    - _OcclusionMap:
        m_Texture: {fileID: 0}
        m_Scale: {x: 1, y: 1}
        m_Offset: {x: 0, y: 0}
    - _ParallaxMap:
        m_Texture: {fileID: 0}
        m_Scale: {x: 1, y: 1}
        m_Offset: {x: 0, y: 0}
    - _Secondaryemission:
        m_Texture: {fileID: 0}
        m_Scale: {x: 1, y: 1}
        m_Offset: {x: 0, y: 0}
    - _Secondaryemissionnoise:
        m_Texture: {fileID: 0}
        m_Scale: {x: 1, y: 1}
        m_Offset: {x: 0, y: 0}
    - _Specular:
        m_Texture: {fileID: 0}
        m_Scale: {x: 1, y: 1}
        m_Offset: {x: 0, y: 0}
    - _texcoord:
        m_Texture: {fileID: 0}
        m_Scale: {x: 1, y: 1}
        m_Offset: {x: 0, y: 0}
    m_Floats:
    - _Activateemission: 0
    - _Activatesecondaryemission: 0
    - _Borderwidth: 0
    - _BumpScale: 1
    - _Cutoff: 0.5
    - _DetailNormalMapScale: 1
    - _DisplaceAmount: 6
    - _DstBlend: 0
    - _EdgeSize: 0.061
    - _Enablerimlight: 1
    - _Fill: 1
    - _GlossMapScale: 1
    - _Glossiness: 1
    - _GlossyReflections: 1
    - _Invertmask: 0
    - _Layernoise: 0
    - _Metallic: 1
    - _Mode: 0
    - _NoiseStrength: 0.4
    - _Noisescale: 0
    - _Noisetexopacity: 1
    - _OcclusionStrength: 1
    - _Parallax: 0.02
    - _Rimlightbias: 0
    - _Rimlightpower: 3.5
    - _Rimlightscale: 1
    - _SecondaryEmissionDesaturation: 0
    - _SecondaryEmissionNoiseDesaturation: 0
    - _Smoothness: 0
    - _SmoothnessTextureChannel: 0
    - _SpecularHighlights: 1
    - _SrcBlend: 1
    - _Tintinsidecolor: 1
    - _UVSec: 0
    - _Use_Gradient: 0
    - _Wave1amplitude: 0
    - _Wave1frequency: 0
    - _Wave1offset: 0
    - _Wave2Frequency: 0
    - _Wave2amplitude: 0
    - _Wave2offset: 0
    - _Worldcoordinates: 0
    - _ZWrite: 1
    - __dirty: 1
    - _cutoff: 0
    m_Colors:
    - _Basecolor: {r: 0, g: 0, b: 0, a: 1}
    - _Bordercolor: {r: 0, g: 0, b: 0, a: 0}
    - _Color: {r: 0.4245283, g: 0.4245283, b: 0.4245283, a: 1}
    - _EdgeColor1: {r: 0, g: 20.865906, b: 2.472744, a: 1}
    - _Emission: {r: 0, g: 0, b: 0, a: 0}
    - _EmissionColor: {r: 0, g: 0, b: 0, a: 1}
    - _Emissiontexspeed: {r: 0, g: 0, b: 0, a: 0}
    - _Emissiontextiling: {r: 1, g: 1, b: 0, a: 0}
    - _Fillcolor: {r: 1, g: 0.5514706, b: 0.5514706, a: 1}
    - _Mainoffset: {r: 0, g: 0, b: 0, a: 0}
    - _Maintiling: {r: 1, g: 1, b: 0, a: 0}
    - _Noisespeed: {r: 0, g: 0, b: 0, a: 0}
    - _Noisetexspeed: {r: 0, g: 0, b: 0, a: 0}
    - _Noisetextiling: {r: 1, g: 1, b: 0, a: 0}
    - _Rimlightcolor: {r: 0, g: 0.8344827, b: 1, a: 1}
    - _Secondaryemissioncolor: {r: 1, g: 0.9724138, b: 0, a: 1}
    - _Secondaryemissionspeed: {r: 0, g: 0, b: 0, a: 0}
    - _Secondaryemissiontiling: {r: 1, g: 1, b: 0, a: 0}
