
geysers.png
size: 92,330
format: RGBA8888
filter: Linear,Linear
repeat: none
Layer 1
  rotate: true
  xy: 2, 2
  size: 83, 88
  orig: 83, 88
  offset: 0, 0
  index: -1
geyser fine
  rotate: false
  xy: 2, 87
  size: 83, 241
  orig: 83, 241
  offset: 0, 0
  index: -1
