
Cavalluccio.png
size: 295,295
format: RGBA8888
filter: Linear,Linear
repeat: none
Layer 1
  rotate: true
  xy: 2, 2
  size: 143, 214
  orig: 143, 214
  offset: 0, 0
  index: -1
Layer 3
  rotate: false
  xy: 2, 147
  size: 248, 146
  orig: 248, 146
  offset: 0, 0
  index: -1
