%YAML 1.1
%TAG !u! tag:unity3d.com,2011:
--- !u!114 &11400000
MonoBehaviour:
  m_ObjectHideFlags: 0
  m_CorrespondingSourceObject: {fileID: 0}
  m_PrefabInstance: {fileID: 0}
  m_PrefabAsset: {fileID: 0}
  m_GameObject: {fileID: 0}
  m_Enabled: 1
  m_EditorHideFlags: 0
  m_Script: {fileID: 11500000, guid: a6b194f808b1af6499c93410e504af42, type: 3}
  m_Name: Cavalluccio_Atlas
  m_EditorClassIdentifier: 
  atlasFile: {fileID: 4900000, guid: f6fe50225fb8ecc4c8ce8e9528b3ee4b, type: 3}
  materials:
  - {fileID: 2100000, guid: 7a925e4f2fc8c9c42a8f13fe79a4ab95, type: 2}
