%YAML 1.1
%TAG !u! tag:unity3d.com,2011:
--- !u!1045 &1
EditorBuildSettings:
  m_ObjectHideFlags: 0
  serializedVersion: 2
  m_Scenes:
  - enabled: 1
    path: Assets/Scenes/MainMenu.unity
    guid: c07edff5603665a44aa16fe4396b2e2b
  - enabled: 1
    path: Assets/Scenes/Vulcano_Round1_BEGINNER.unity
    guid: fc5905eea823a9d4c8a047c7933c024d
  - enabled: 1
    path: Assets/Scenes/Vulcano_Round1_REGULAR.unity
    guid: e2ca6b1810f1a3b41a96abb78c655eb5
  - enabled: 1
    path: Assets/Scenes/Vulcano_Round1_VETERAN.unity
    guid: 6f14a1499a5eeb64890080544dac9f6e
  - enabled: 1
    path: Assets/Scenes/Vulcano_Round2_BEGINNER.unity
    guid: 69da7365c5ab5f44abb2ecdf4798db22
  - enabled: 1
    path: Assets/Scenes/Vulcano_Round2_REGULAR.unity
    guid: eaabf8d472d0f4643bb2ff7fdba18126
  - enabled: 1
    path: Assets/Scenes/Vulcano_Round2_VETERAN.unity
    guid: a503451fb2afd0a42a3e2ad5bd6a3aa5
  - enabled: 1
    path: Assets/Scenes/Vulcano_Round3_BEGINNER.unity
    guid: bc24804fd180ecf49a3f969b37536509
  - enabled: 1
    path: Assets/Scenes/Vulcano_Round3_REGULAR.unity
    guid: 003b4fb4026bab543ae4de5ff3c83ae3
  - enabled: 1
    path: Assets/Scenes/Vulcano_Round3_VETERAN.unity
    guid: 9c4ead8f3fbbe344fbcb143a9770cb34
  m_configObjects: {}
