%YAML 1.1
%TAG !u! tag:unity3d.com,2011:
--- !u!78 &1
TagManager:
  serializedVersion: 2
  tags:
  - Obstacle
  - Wall
  - Ball
  - Score
  - GroundObstacle
  - BobinaDiTesla
  - RoundScore
  - RoundEnd
  - CollectibleObstacle
  - CountDown
  - GameScore
  - Plane
  - Camera
  - Skybox
  - Glow
  layers:
  - Default
  - TransparentFX
  - Ignore Raycast
  - 
  - Water
  - UI
  - 
  - 
  - PostProcessing
  - Ground
  - Player
  - Ball
  - Invulnerable
  - Hit
  - 
  - 
  - 
  - 
  - 
  - 
  - 
  - 
  - 
  - 
  - 
  - 
  - 
  - 
  - 
  - 
  - 
  - 
  m_SortingLayers:
  - name: Default
    uniqueID: 0
    locked: 0
