%YAML 1.1
%TAG !u! tag:unity3d.com,2011:
--- !u!114 &11400000
MonoBehaviour:
  m_ObjectHideFlags: 0
  m_CorrespondingSourceObject: {fileID: 0}
  m_PrefabInstance: {fileID: 0}
  m_PrefabAsset: {fileID: 0}
  m_GameObject: {fileID: 0}
  m_Enabled: 1
  m_EditorHideFlags: 0
  m_Script: {fileID: 11500000, guid: 63fb186eace815c43a252b3fbd6d9d66, type: 3}
  m_Name: Striker
  m_EditorClassIdentifier: 
  name: Striker
  type: 2
  description: Luck +16
  trigger:
    trigger: 0
    life: 0
    effectUsed: 0
    effects:
    - {fileID: 11400000, guid: 169add094ec4f914f953145b7224b8f4, type: 2}
    description: 
    canActivate: 0
  abilityPointsNeeded: 0
  icon: {fileID: 21300000, guid: 4da3eb277f575bf40a47021ae47f91cb, type: 3}
